{
  "passive": [
    {
      "ra": 100,
      "e_pas": -70
    }
  ], 
  "conditions": [
    {
      "celsius": 37, 
      "erev": [
        {
          "ena": 50.0,
          "section": "soma",
          "ek": -85.0
        }, 
        {
          "ena": 50.0,
          "section": "axon",
          "ek": -85.0
        }, 
        {
          "ena": 50.0,
          "section": "apic",
          "ek": -85.0
        }, 
        {
          "ena": 50.0,
          "section": "dend",
          "ek": -85.0
        }
      ], 
      "v_init": -80
    }
  ], 
  "genome": [
    {
      "section": "soma", 
      "name": "g_pas", 
      "value": 3e-5,
      "mechanism": ""
    }, 
    {
      "section": "axon", 
      "name": "g_pas", 
      "value": 3e-5,
      "mechanism": ""
    }, 
    {
      "section": "apic", 
      "name": "g_pas", 
      "value": 6e-5,
      "mechanism": ""
    }, 
    {
      "section": "dend", 
      "name": "g_pas", 
      "value": 6e-5,
      "mechanism": ""
    }, 
    {
      "section": "soma", 
      "name": "cm", 
      "value": 1,
      "mechanism": ""
    }, 
    {
      "section": "axon", 
      "name": "cm", 
      "value": 1,
      "mechanism": ""
    }, 
    {
      "section": "apic", 
      "name": "cm", 
      "value": 2,
      "mechanism": ""
    }, 
    {

      "section": "dend", 
      "name": "cm", 
      "value": 2,
      "mechanism": ""
    }, 
    {

      "section": "soma", 
      "name": "gNaTs2_tbar",
      "value": 0.998912,
      "mechanism": "NaTs2_t_2F"
    },
    {
      "section": "soma", 
      "name": "gSKv3_1bar",
      "value": 0.338029,
      "mechanism": "SKv3_1"
    },
    {
      "section": "soma",
      "name": "gSK_E2bar",
      "value": 0.09965,
      "mechanism": "SK_E2"
    },
    {
      "section": "soma", 
      "name": "gCa_HVAbar",
      "value": 0.000644,
      "mechanism": "Ca_HVA"
    },
    {
      "section": "soma", 
      "name": "gCa_LVAstbar",
      "value": 0.000557,
      "mechanism": "Ca_LVAst"
    },
    {
      "section": "soma", 
      "name": "decay",
      "value": 294.679571,
      "mechanism": "CaDynamics_E2"
    }, 
    {
      "section": "soma", 
      "name": "gamma",
      "value": 0.000509,
      "mechanism": "CaDynamics_E2"
    },
    {
      "section": "soma", 
      "name": "gIhbar",
      "value": 0.0001,
      "mechanism": "Ih"
    },
    {
      "section": "soma",
      "name": "gImbar",
      "value": 0.000008,
      "mechanism": "Im"
    },
    {
      "section": "apic", 
      "name": "gSK_E2bar",
      "value": 0.000002,
      "mechanism": "SK_E2"
    }, 
    {
      "section": "apic", 						  						 
      "name": "gSKv3_1bar",
      "value": 0.001808,
      "mechanism": "SKv3_1"
    }, 
    {
      "section": "apic",
      "name": "gNaTs2_tbar",
      "value": 0.021489,
      "mechanism": "NaTs2_t_2F"
    },
    {
      "section": "apic",
      "name": "gCa_HVAbar",
      "value": 0.000701,
      "mechanism": "Ca_HVA"
    },
    {
      "section": "apic", 
      "name": "gImbar",
      "value": 0.00099,
      "mechanism": "Im"
    },
    {
      "section": "apic",
      "name": "decay",
      "value": 35.725651,
      "mechanism": "CaDynamics_E2"
    }, 
    {
      "section": "apic",
      "name": "gamma",
      "value": 0.000637,
      "mechanism": "CaDynamics_E2"
    },
    {
      "section": "dend",
      "name": "gIhbar",
      "value": 0.0001,
      "mechanism": "Ih"
    },
    {						 	 
      "section": "axon",
      "name": "gImbar",
      "value": 0.013322,
      "mechanism": "Im"
    },
    {
      "section": "axon",
      "name": "gCa_LVAstbar",
      "value": 0.000813,
      "mechanism": "Ca_LVAst"
    },
    {
      "section": "axon",
      "name": "gCa_HVAbar",
      "value": 0.000222,
      "mechanism": "Ca_HVA"
    },
    {
      "section": "axon",
      "name": "decay",
      "value": 277.300774,
      "mechanism": "CaDynamics_E2"
    },
    {
      "section": "axon",
      "name": "gamma",
      "value": 0.000525,
      "mechanism": "CaDynamics_E2"
    },
    {
      "section": "axon",
      "name": "gIhbar",
      "value": 0.0001,
      "mechanism": "Ih"
    },
    {
      "section": "axon",
      "name": "gSKv3_1bar",
      "value": 0.473799,
      "mechanism": "SKv3_1"
    },
    {
      "section": "axon",
      "name": "gSK_E2bar",
      "value": 0.000047,
      "mechanism": "SK_E2"
    },
    {
      "section": "axon",
      "name": "gK_Tstbar",
      "value": 0.077274,
      "mechanism": "K_Tst_2F"
    },
    {
      "section": "axon",
      "name": "gK_Pstbar",
      "value": 0.188851,
      "mechanism": "K_Pst_2F"
    },
    {
      "section": "axon",
      "name": "gNap_Et2bar",
      "value": 0.005834,
      "mechanism": "Nap_Et2_2F"
    },
    {
      "section": "axon",
      "name": "gNaTa_tbar",
      "value": 3.89618,
      "mechanism": "NaTa_t_2F"
    }
  ],
  "gradient":[
  {
      "section":"apic",
      "name": "gIhbar",
      "function": "exponential",
      "value": [-0.8696, 3.6161, 0, 2.0870, 0.0001],
      "mechanism": "Ih"
  },
  {
      "section": "apic",
      "name": "gCa_LVAstbar",
      "function": "step",
      "value": [700, 900, 1, 0.01, 0.1419540000],
      "mechanism": "Ca_LVAst"
  }
  ],

"synapse": [
	{
		"section": [
			"dend[0]"
		],
		"num": 1,
		"name": "AMPA"
	},
	{
		"section": [
			"dend[0]"
		],
		"num": 1,
		"name": "GABA_A"
	},
	{
		"section": [
			"dend[2]"
		],
		"num": 2,
		"name": "AMPA"
	},
	{
		"section": [
			"dend[2]"
		],
		"num": 2,
		"name": "GABA_A"
	},
	{
		"section": [
			"dend[4]"
		],
		"num": 1,
		"name": "AMPA"
	},
	{
		"section": [
			"dend[4]"
		],
		"num": 1,
		"name": "GABA_A"
	},
	{
		"section": [
			"dend[5]"
		],
		"num": 2,
		"name": "AMPA"
	},
	{
		"section": [
			"dend[5]"
		],
		"num": 2,
		"name": "GABA_A"
	},
	{
		"section": [
			"dend[6]"
		],
		"num": 1,
		"name": "AMPA"
	},
	{
		"section": [
			"dend[6]"
		],
		"num": 1,
		"name": "GABA_A"
	},
	{
		"section": [
			"dend[7]"
		],
		"num": 1,
		"name": "AMPA"
	},
	{
		"section": [
			"dend[7]"
		],
		"num": 1,
		"name": "GABA_A"
	},
	{
		"section": [
			"dend[10]"
		],
		"num": 1,
		"name": "AMPA"
	},
	{
		"section": [
			"dend[10]"
		],
		"num": 1,
		"name": "GABA_A"
	},
	{
		"section": [
			"dend[12]"
		],
		"num": 1,
		"name": "AMPA"
	},
	{
		"section": [
			"dend[12]"
		],
		"num": 1,
		"name": "GABA_A"
	},
	{
		"section": [
			"dend[13]"
		],
		"num": 1,
		"name": "AMPA"
	},
	{
		"section": [
			"dend[13]"
		],
		"num": 1,
		"name": "GABA_A"
	},
	{
		"section": [
			"dend[14]"
		],
		"num": 1,
		"name": "AMPA"
	},
	{
		"section": [
			"dend[14]"
		],
		"num": 1,
		"name": "GABA_A"
	},
	{
		"section": [
			"dend[18]"
		],
		"num": 1,
		"name": "AMPA"
	},
	{
		"section": [
			"dend[18]"
		],
		"num": 1,
		"name": "GABA_A"
	},
	{
		"section": [
			"dend[25]"
		],
		"num": 1,
		"name": "AMPA"
	},
	{
		"section": [
			"dend[25]"
		],
		"num": 1,
		"name": "GABA_A"
	},
	{
		"section": [
			"dend[26]"
		],
		"num": 1,
		"name": "AMPA"
	},
	{
		"section": [
			"dend[26]"
		],
		"num": 1,
		"name": "GABA_A"
	},
	{
		"section": [
			"dend[27]"
		],
		"num": 1,
		"name": "AMPA"
	},
	{
		"section": [
			"dend[27]"
		],
		"num": 1,
		"name": "GABA_A"
	},
	{
		"section": [
			"dend[28]"
		],
		"num": 2,
		"name": "AMPA"
	},
	{
		"section": [
			"dend[28]"
		],
		"num": 2,
		"name": "GABA_A"
	},
	{
		"section": [
			"dend[31]"
		],
		"num": 1,
		"name": "AMPA"
	},
	{
		"section": [
			"dend[31]"
		],
		"num": 1,
		"name": "GABA_A"
	},
	{
		"section": [
			"dend[32]"
		],
		"num": 1,
		"name": "AMPA"
	},
	{
		"section": [
			"dend[32]"
		],
		"num": 1,
		"name": "GABA_A"
	},
	{
		"section": [
			"dend[33]"
		],
		"num": 1,
		"name": "AMPA"
	},
	{
		"section": [
			"dend[33]"
		],
		"num": 1,
		"name": "GABA_A"
	},
	{
		"section": [
			"dend[35]"
		],
		"num": 2,
		"name": "AMPA"
	},
	{
		"section": [
			"dend[35]"
		],
		"num": 2,
		"name": "GABA_A"
	},
	{
		"section": [
			"dend[36]"
		],
		"num": 1,
		"name": "AMPA"
	},
	{
		"section": [
			"dend[36]"
		],
		"num": 1,
		"name": "GABA_A"
	},
	{
		"section": [
			"dend[38]"
		],
		"num": 1,
		"name": "AMPA"
	},
	{
		"section": [
			"dend[38]"
		],
		"num": 1,
		"name": "GABA_A"
	},
	{
		"section": [
			"dend[39]"
		],
		"num": 2,
		"name": "AMPA"
	},
	{
		"section": [
			"dend[39]"
		],
		"num": 2,
		"name": "GABA_A"
	},
	{
		"section": [
			"dend[40]"
		],
		"num": 2,
		"name": "AMPA"
	},
	{
		"section": [
			"dend[40]"
		],
		"num": 2,
		"name": "GABA_A"
	},
	{
		"section": [
			"dend[42]"
		],
		"num": 1,
		"name": "AMPA"
	},
	{
		"section": [
			"dend[42]"
		],
		"num": 1,
		"name": "GABA_A"
	},
	{
		"section": [
			"dend[43]"
		],
		"num": 1,
		"name": "AMPA"
	},
	{
		"section": [
			"dend[43]"
		],
		"num": 1,
		"name": "GABA_A"
	},
	{
		"section": [
			"dend[44]"
		],
		"num": 1,
		"name": "AMPA"
	},
	{
		"section": [
			"dend[44]"
		],
		"num": 1,
		"name": "GABA_A"
	},
	{
		"section": [
			"dend[45]"
		],
		"num": 2,
		"name": "AMPA"
	},
	{
		"section": [
			"dend[45]"
		],
		"num": 2,
		"name": "GABA_A"
	},
	{
		"section": [
			"dend[53]"
		],
		"num": 1,
		"name": "AMPA"
	},
	{
		"section": [
			"dend[53]"
		],
		"num": 1,
		"name": "GABA_A"
	},
	{
		"section": [
			"dend[54]"
		],
		"num": 1,
		"name": "AMPA"
	},
	{
		"section": [
			"dend[54]"
		],
		"num": 1,
		"name": "GABA_A"
	},
	{
		"section": [
			"dend[58]"
		],
		"num": 2,
		"name": "AMPA"
	},
	{
		"section": [
			"dend[58]"
		],
		"num": 2,
		"name": "GABA_A"
	},
	{
		"section": [
			"dend[59]"
		],
		"num": 3,
		"name": "AMPA"
	},
	{
		"section": [
			"dend[59]"
		],
		"num": 3,
		"name": "GABA_A"
	},
	{
		"section": [
			"dend[60]"
		],
		"num": 2,
		"name": "AMPA"
	},
	{
		"section": [
			"dend[60]"
		],
		"num": 2,
		"name": "GABA_A"
	},
	{
		"section": [
			"dend[61]"
		],
		"num": 1,
		"name": "AMPA"
	},
	{
		"section": [
			"dend[61]"
		],
		"num": 1,
		"name": "GABA_A"
	},
	{
		"section": [
			"dend[62]"
		],
		"num": 1,
		"name": "AMPA"
	},
	{
		"section": [
			"dend[62]"
		],
		"num": 1,
		"name": "GABA_A"
	},
	{
		"section": [
			"dend[63]"
		],
		"num": 1,
		"name": "AMPA"
	},
	{
		"section": [
			"dend[63]"
		],
		"num": 1,
		"name": "GABA_A"
	},
	{
		"section": [
			"dend[66]"
		],
		"num": 1,
		"name": "AMPA"
	},
	{
		"section": [
			"dend[66]"
		],
		"num": 1,
		"name": "GABA_A"
	},
	{
		"section": [
			"dend[67]"
		],
		"num": 1,
		"name": "AMPA"
	},
	{
		"section": [
			"dend[67]"
		],
		"num": 1,
		"name": "GABA_A"
	},
	{
		"section": [
			"dend[68]"
		],
		"num": 1,
		"name": "AMPA"
	},
	{
		"section": [
			"dend[68]"
		],
		"num": 1,
		"name": "GABA_A"
	},
	{
		"section": [
			"dend[69]"
		],
		"num": 1,
		"name": "AMPA"
	},
	{
		"section": [
			"dend[69]"
		],
		"num": 1,
		"name": "GABA_A"
	},
	{
		"section": [
			"dend[70]"
		],
		"num": 2,
		"name": "AMPA"
	},
	{
		"section": [
			"dend[70]"
		],
		"num": 2,
		"name": "GABA_A"
	},
	{
		"section": [
			"dend[72]"
		],
		"num": 2,
		"name": "AMPA"
	},
	{
		"section": [
			"dend[72]"
		],
		"num": 2,
		"name": "GABA_A"
	},
	{
		"section": [
			"dend[74]"
		],
		"num": 1,
		"name": "AMPA"
	},
	{
		"section": [
			"dend[74]"
		],
		"num": 1,
		"name": "GABA_A"
	},
	{
		"section": [
			"dend[78]"
		],
		"num": 1,
		"name": "AMPA"
	},
	{
		"section": [
			"dend[78]"
		],
		"num": 1,
		"name": "GABA_A"
	},
	{
		"section": [
			"dend[81]"
		],
		"num": 1,
		"name": "AMPA"
	},
	{
		"section": [
			"dend[81]"
		],
		"num": 1,
		"name": "GABA_A"
	},
	{
		"section": [
			"dend[82]"
		],
		"num": 1,
		"name": "AMPA"
	},
	{
		"section": [
			"dend[82]"
		],
		"num": 1,
		"name": "GABA_A"
	},
	{
		"section": [
			"apic[0]"
		],
		"num": 5,
		"name": "AMPA"
	},
	{
		"section": [
			"apic[0]"
		],
		"num": 5,
		"name": "GABA_A"
	},
	{
		"section": [
			"apic[1]"
		],
		"num": 4,
		"name": "AMPA"
	},
	{
		"section": [
			"apic[1]"
		],
		"num": 4,
		"name": "GABA_A"
	},
	{
		"section": [
			"apic[2]"
		],
		"num": 2,
		"name": "AMPA"
	},
	{
		"section": [
			"apic[2]"
		],
		"num": 2,
		"name": "GABA_A"
	},
	{
		"section": [
			"apic[3]"
		],
		"num": 3,
		"name": "AMPA"
	},
	{
		"section": [
			"apic[3]"
		],
		"num": 3,
		"name": "GABA_A"
	},
	{
		"section": [
			"apic[7]"
		],
		"num": 1,
		"name": "AMPA"
	},
	{
		"section": [
			"apic[7]"
		],
		"num": 1,
		"name": "GABA_A"
	},
	{
		"section": [
			"apic[9]"
		],
		"num": 2,
		"name": "AMPA"
	},
	{
		"section": [
			"apic[9]"
		],
		"num": 2,
		"name": "GABA_A"
	},
	{
		"section": [
			"apic[10]"
		],
		"num": 1,
		"name": "AMPA"
	},
	{
		"section": [
			"apic[10]"
		],
		"num": 1,
		"name": "GABA_A"
	},
	{
		"section": [
			"apic[12]"
		],
		"num": 2,
		"name": "AMPA"
	},
	{
		"section": [
			"apic[12]"
		],
		"num": 2,
		"name": "GABA_A"
	},
	{
		"section": [
			"apic[13]"
		],
		"num": 2,
		"name": "AMPA"
	},
	{
		"section": [
			"apic[13]"
		],
		"num": 2,
		"name": "GABA_A"
	},
	{
		"section": [
			"apic[14]"
		],
		"num": 4,
		"name": "AMPA"
	},
	{
		"section": [
			"apic[14]"
		],
		"num": 4,
		"name": "GABA_A"
	},
	{
		"section": [
			"apic[17]"
		],
		"num": 2,
		"name": "AMPA"
	},
	{
		"section": [
			"apic[17]"
		],
		"num": 2,
		"name": "GABA_A"
	},
	{
		"section": [
			"apic[18]"
		],
		"num": 1,
		"name": "AMPA"
	},
	{
		"section": [
			"apic[18]"
		],
		"num": 1,
		"name": "GABA_A"
	},
	{
		"section": [
			"apic[19]"
		],
		"num": 2,
		"name": "AMPA"
	},
	{
		"section": [
			"apic[19]"
		],
		"num": 2,
		"name": "GABA_A"
	},
	{
		"section": [
			"apic[20]"
		],
		"num": 2,
		"name": "AMPA"
	},
	{
		"section": [
			"apic[20]"
		],
		"num": 2,
		"name": "GABA_A"
	},
	{
		"section": [
			"apic[22]"
		],
		"num": 1,
		"name": "AMPA"
	},
	{
		"section": [
			"apic[22]"
		],
		"num": 1,
		"name": "GABA_A"
	},
	{
		"section": [
			"apic[25]"
		],
		"num": 1,
		"name": "AMPA"
	},
	{
		"section": [
			"apic[25]"
		],
		"num": 1,
		"name": "GABA_A"
	},
	{
		"section": [
			"apic[26]"
		],
		"num": 1,
		"name": "AMPA"
	},
	{
		"section": [
			"apic[26]"
		],
		"num": 1,
		"name": "GABA_A"
	},
	{
		"section": [
			"apic[29]"
		],
		"num": 1,
		"name": "AMPA"
	},
	{
		"section": [
			"apic[29]"
		],
		"num": 1,
		"name": "GABA_A"
	},
	{
		"section": [
			"apic[30]"
		],
		"num": 1,
		"name": "AMPA"
	},
	{
		"section": [
			"apic[30]"
		],
		"num": 1,
		"name": "GABA_A"
	},
	{
		"section": [
			"apic[33]"
		],
		"num": 2,
		"name": "AMPA"
	},
	{
		"section": [
			"apic[33]"
		],
		"num": 2,
		"name": "GABA_A"
	},
	{
		"section": [
			"apic[34]"
		],
		"num": 4,
		"name": "AMPA"
	},
	{
		"section": [
			"apic[34]"
		],
		"num": 4,
		"name": "GABA_A"
	},
	{
		"section": [
			"apic[35]"
		],
		"num": 2,
		"name": "AMPA"
	},
	{
		"section": [
			"apic[35]"
		],
		"num": 2,
		"name": "GABA_A"
	},
	{
		"section": [
			"apic[36]"
		],
		"num": 14,
		"name": "AMPA"
	},
	{
		"section": [
			"apic[36]"
		],
		"num": 14,
		"name": "GABA_A"
	},
	{
		"section": [
			"apic[37]"
		],
		"num": 9,
		"name": "AMPA"
	},
	{
		"section": [
			"apic[37]"
		],
		"num": 9,
		"name": "GABA_A"
	},
	{
		"section": [
			"apic[38]"
		],
		"num": 2,
		"name": "AMPA"
	},
	{
		"section": [
			"apic[38]"
		],
		"num": 2,
		"name": "GABA_A"
	},
	{
		"section": [
			"apic[39]"
		],
		"num": 1,
		"name": "AMPA"
	},
	{
		"section": [
			"apic[39]"
		],
		"num": 1,
		"name": "GABA_A"
	},
	{
		"section": [
			"apic[40]"
		],
		"num": 3,
		"name": "AMPA"
	},
	{
		"section": [
			"apic[40]"
		],
		"num": 3,
		"name": "GABA_A"
	},
	{
		"section": [
			"apic[45]"
		],
		"num": 1,
		"name": "AMPA"
	},
	{
		"section": [
			"apic[45]"
		],
		"num": 1,
		"name": "GABA_A"
	},
	{
		"section": [
			"apic[49]"
		],
		"num": 2,
		"name": "AMPA"
	},
	{
		"section": [
			"apic[49]"
		],
		"num": 2,
		"name": "GABA_A"
	},
	{
		"section": [
			"apic[50]"
		],
		"num": 2,
		"name": "AMPA"
	},
	{
		"section": [
			"apic[50]"
		],
		"num": 2,
		"name": "GABA_A"
	},
	{
		"section": [
			"apic[51]"
		],
		"num": 6,
		"name": "AMPA"
	},
	{
		"section": [
			"apic[51]"
		],
		"num": 6,
		"name": "GABA_A"
	},
	{
		"section": [
			"apic[52]"
		],
		"num": 1,
		"name": "AMPA"
	},
	{
		"section": [
			"apic[52]"
		],
		"num": 1,
		"name": "GABA_A"
	},
	{
		"section": [
			"apic[53]"
		],
		"num": 4,
		"name": "AMPA"
	},
	{
		"section": [
			"apic[53]"
		],
		"num": 4,
		"name": "GABA_A"
	},
	{
		"section": [
			"apic[60]"
		],
		"num": 5,
		"name": "AMPA"
	},
	{
		"section": [
			"apic[60]"
		],
		"num": 5,
		"name": "GABA_A"
	},
	{
		"section": [
			"apic[61]"
		],
		"num": 3,
		"name": "AMPA"
	},
	{
		"section": [
			"apic[61]"
		],
		"num": 3,
		"name": "GABA_A"
	},
	{
		"section": [
			"apic[62]"
		],
		"num": 1,
		"name": "AMPA"
	},
	{
		"section": [
			"apic[62]"
		],
		"num": 1,
		"name": "GABA_A"
	},
	{
		"section": [
			"apic[63]"
		],
		"num": 2,
		"name": "AMPA"
	},
	{
		"section": [
			"apic[63]"
		],
		"num": 2,
		"name": "GABA_A"
	},
	{
		"section": [
			"apic[64]"
		],
		"num": 1,
		"name": "AMPA"
	},
	{
		"section": [
			"apic[64]"
		],
		"num": 1,
		"name": "GABA_A"
	},
	{
		"section": [
			"apic[67]"
		],
		"num": 1,
		"name": "AMPA"
	},
	{
		"section": [
			"apic[67]"
		],
		"num": 1,
		"name": "GABA_A"
	},
	{
		"section": [
			"apic[68]"
		],
		"num": 2,
		"name": "AMPA"
	},
	{
		"section": [
			"apic[68]"
		],
		"num": 2,
		"name": "GABA_A"
	},
	{
		"section": [
			"apic[69]"
		],
		"num": 2,
		"name": "AMPA"
	},
	{
		"section": [
			"apic[69]"
		],
		"num": 2,
		"name": "GABA_A"
	},
	{
		"section": [
			"apic[71]"
		],
		"num": 1,
		"name": "AMPA"
	},
	{
		"section": [
			"apic[71]"
		],
		"num": 1,
		"name": "GABA_A"
	},
	{
		"section": [
			"apic[73]"
		],
		"num": 1,
		"name": "AMPA"
	},
	{
		"section": [
			"apic[73]"
		],
		"num": 1,
		"name": "GABA_A"
	},
	{
		"section": [
			"apic[75]"
		],
		"num": 1,
		"name": "AMPA"
	},
	{
		"section": [
			"apic[75]"
		],
		"num": 1,
		"name": "GABA_A"
	},
	{
		"section": [
			"apic[76]"
		],
		"num": 1,
		"name": "AMPA"
	},
	{
		"section": [
			"apic[76]"
		],
		"num": 1,
		"name": "GABA_A"
	},
	{
		"section": [
			"apic[77]"
		],
		"num": 1,
		"name": "AMPA"
	},
	{
		"section": [
			"apic[77]"
		],
		"num": 1,
		"name": "GABA_A"
	},
	{
		"section": [
			"apic[78]"
		],
		"num": 1,
		"name": "AMPA"
	},
	{
		"section": [
			"apic[78]"
		],
		"num": 1,
		"name": "GABA_A"
	},
	{
		"section": [
			"apic[79]"
		],
		"num": 1,
		"name": "AMPA"
	},
	{
		"section": [
			"apic[79]"
		],
		"num": 1,
		"name": "GABA_A"
	},
	{
		"section": [
			"apic[80]"
		],
		"num": 1,
		"name": "AMPA"
	},
	{
		"section": [
			"apic[80]"
		],
		"num": 1,
		"name": "GABA_A"
	},
	{
		"section": [
			"apic[82]"
		],
		"num": 1,
		"name": "AMPA"
	},
	{
		"section": [
			"apic[82]"
		],
		"num": 1,
		"name": "GABA_A"
	},
	{
		"section": [
			"apic[83]"
		],
		"num": 1,
		"name": "AMPA"
	},
	{
		"section": [
			"apic[83]"
		],
		"num": 1,
		"name": "GABA_A"
	},
	{
		"section": [
			"apic[86]"
		],
		"num": 1,
		"name": "AMPA"
	},
	{
		"section": [
			"apic[86]"
		],
		"num": 1,
		"name": "GABA_A"
	},
	{
		"section": [
			"apic[87]"
		],
		"num": 3,
		"name": "AMPA"
	},
	{
		"section": [
			"apic[87]"
		],
		"num": 3,
		"name": "GABA_A"
	},
	{
		"section": [
			"apic[89]"
		],
		"num": 1,
		"name": "AMPA"
	},
	{
		"section": [
			"apic[89]"
		],
		"num": 1,
		"name": "GABA_A"
	},
	{
		"section": [
			"apic[93]"
		],
		"num": 2,
		"name": "AMPA"
	},
	{
		"section": [
			"apic[93]"
		],
		"num": 2,
		"name": "GABA_A"
	},
	{
		"section": [
			"apic[95]"
		],
		"num": 1,
		"name": "AMPA"
	},
	{
		"section": [
			"apic[95]"
		],
		"num": 1,
		"name": "GABA_A"
	},
	{
		"section": [
			"apic[99]"
		],
		"num": 1,
		"name": "AMPA"
	},
	{
		"section": [
			"apic[99]"
		],
		"num": 1,
		"name": "GABA_A"
	},
	{
		"section": [
			"apic[101]"
		],
		"num": 2,
		"name": "AMPA"
	},
	{
		"section": [
			"apic[101]"
		],
		"num": 2,
		"name": "GABA_A"
	},
	{
		"section": [
			"apic[102]"
		],
		"num": 3,
		"name": "AMPA"
	},
	{
		"section": [
			"apic[102]"
		],
		"num": 3,
		"name": "GABA_A"
	},
	{
		"section": [
			"apic[103]"
		],
		"num": 1,
		"name": "AMPA"
	},
	{
		"section": [
			"apic[103]"
		],
		"num": 1,
		"name": "GABA_A"
	},
	{
		"section": [
			"apic[104]"
		],
		"num": 1,
		"name": "AMPA"
	},
	{
		"section": [
			"apic[104]"
		],
		"num": 1,
		"name": "GABA_A"
	},
	{
		"section": [
			"apic[105]"
		],
		"num": 1,
		"name": "AMPA"
	},
	{
		"section": [
			"apic[105]"
		],
		"num": 1,
		"name": "GABA_A"
	}
],
"spines": [
	{
		"section": [
			"dend[0]"
		],
		"type": "rand",
		"num": 2,
		"head_len": 0.5,
		"head_diam": 0.5,
		"neck_len": 1.58,
		"neck_diam": 0.077,
		"head_g_pas": 5e-05,
		"head_e_pas": -90,
		"neck_g_pas": 5e-05,
		"neck_e_pas": -90,
		"head_cm": 1,
		"head_Ra": 100,
		"neck_cm": 1,
		"neck_Ra": 100
	},
	{
		"section": [
			"dend[1]"
		],
		"type": "rand",
		"num": 1,
		"head_len": 0.5,
		"head_diam": 0.5,
		"neck_len": 1.58,
		"neck_diam": 0.077,
		"head_g_pas": 5e-05,
		"head_e_pas": -90,
		"neck_g_pas": 5e-05,
		"neck_e_pas": -90,
		"head_cm": 1,
		"head_Ra": 100,
		"neck_cm": 1,
		"neck_Ra": 100
	},
	{
		"section": [
			"dend[2]"
		],
		"type": "cluster",
		"num": [
			1,
			5
		],
		"head_len": 0.5,
		"head_diam": 0.5,
		"neck_len": 1.58,
		"neck_diam": 0.077,
		"head_g_pas": 5e-05,
		"head_e_pas": -90,
		"neck_g_pas": 5e-05,
		"neck_e_pas": -90,
		"head_cm": 1,
		"head_Ra": 100,
		"neck_cm": 1,
		"neck_Ra": 100
	},
	{
		"section": [
			"dend[4]"
		],
		"type": "rand",
		"num": 3,
		"head_len": 0.5,
		"head_diam": 0.5,
		"neck_len": 1.58,
		"neck_diam": 0.077,
		"head_g_pas": 5e-05,
		"head_e_pas": -90,
		"neck_g_pas": 5e-05,
		"neck_e_pas": -90,
		"head_cm": 1,
		"head_Ra": 100,
		"neck_cm": 1,
		"neck_Ra": 100
	},
	{
		"section": [
			"dend[5]"
		],
		"type": "cluster",
		"num": [
			1,
			5
		],
		"head_len": 0.5,
		"head_diam": 0.5,
		"neck_len": 1.58,
		"neck_diam": 0.077,
		"head_g_pas": 5e-05,
		"head_e_pas": -90,
		"neck_g_pas": 5e-05,
		"neck_e_pas": -90,
		"head_cm": 1,
		"head_Ra": 100,
		"neck_cm": 1,
		"neck_Ra": 100
	},
	{
		"section": [
			"dend[6]"
		],
		"type": "rand",
		"num": 4,
		"head_len": 0.5,
		"head_diam": 0.5,
		"neck_len": 1.58,
		"neck_diam": 0.077,
		"head_g_pas": 5e-05,
		"head_e_pas": -90,
		"neck_g_pas": 5e-05,
		"neck_e_pas": -90,
		"head_cm": 1,
		"head_Ra": 100,
		"neck_cm": 1,
		"neck_Ra": 100
	},
	{
		"section": [
			"dend[7]"
		],
		"type": "rand",
		"num": 2,
		"head_len": 0.5,
		"head_diam": 0.5,
		"neck_len": 1.58,
		"neck_diam": 0.077,
		"head_g_pas": 5e-05,
		"head_e_pas": -90,
		"neck_g_pas": 5e-05,
		"neck_e_pas": -90,
		"head_cm": 1,
		"head_Ra": 100,
		"neck_cm": 1,
		"neck_Ra": 100
	},
	{
		"section": [
			"dend[8]"
		],
		"type": "rand",
		"num": 1,
		"head_len": 0.5,
		"head_diam": 0.5,
		"neck_len": 1.58,
		"neck_diam": 0.077,
		"head_g_pas": 5e-05,
		"head_e_pas": -90,
		"neck_g_pas": 5e-05,
		"neck_e_pas": -90,
		"head_cm": 1,
		"head_Ra": 100,
		"neck_cm": 1,
		"neck_Ra": 100
	},
	{
		"section": [
			"dend[10]"
		],
		"type": "rand",
		"num": 2,
		"head_len": 0.5,
		"head_diam": 0.5,
		"neck_len": 1.58,
		"neck_diam": 0.077,
		"head_g_pas": 5e-05,
		"head_e_pas": -90,
		"neck_g_pas": 5e-05,
		"neck_e_pas": -90,
		"head_cm": 1,
		"head_Ra": 100,
		"neck_cm": 1,
		"neck_Ra": 100
	},
	{
		"section": [
			"dend[12]"
		],
		"type": "rand",
		"num": 2,
		"head_len": 0.5,
		"head_diam": 0.5,
		"neck_len": 1.58,
		"neck_diam": 0.077,
		"head_g_pas": 5e-05,
		"head_e_pas": -90,
		"neck_g_pas": 5e-05,
		"neck_e_pas": -90,
		"head_cm": 1,
		"head_Ra": 100,
		"neck_cm": 1,
		"neck_Ra": 100
	},
	{
		"section": [
			"dend[13]"
		],
		"type": "rand",
		"num": 3,
		"head_len": 0.5,
		"head_diam": 0.5,
		"neck_len": 1.58,
		"neck_diam": 0.077,
		"head_g_pas": 5e-05,
		"head_e_pas": -90,
		"neck_g_pas": 5e-05,
		"neck_e_pas": -90,
		"head_cm": 1,
		"head_Ra": 100,
		"neck_cm": 1,
		"neck_Ra": 100
	},
	{
		"section": [
			"dend[14]"
		],
		"type": "rand",
		"num": 4,
		"head_len": 0.5,
		"head_diam": 0.5,
		"neck_len": 1.58,
		"neck_diam": 0.077,
		"head_g_pas": 5e-05,
		"head_e_pas": -90,
		"neck_g_pas": 5e-05,
		"neck_e_pas": -90,
		"head_cm": 1,
		"head_Ra": 100,
		"neck_cm": 1,
		"neck_Ra": 100
	},
	{
		"section": [
			"dend[15]"
		],
		"type": "rand",
		"num": 1,
		"head_len": 0.5,
		"head_diam": 0.5,
		"neck_len": 1.58,
		"neck_diam": 0.077,
		"head_g_pas": 5e-05,
		"head_e_pas": -90,
		"neck_g_pas": 5e-05,
		"neck_e_pas": -90,
		"head_cm": 1,
		"head_Ra": 100,
		"neck_cm": 1,
		"neck_Ra": 100
	},
	{
		"section": [
			"dend[16]"
		],
		"type": "rand",
		"num": 1,
		"head_len": 0.5,
		"head_diam": 0.5,
		"neck_len": 1.58,
		"neck_diam": 0.077,
		"head_g_pas": 5e-05,
		"head_e_pas": -90,
		"neck_g_pas": 5e-05,
		"neck_e_pas": -90,
		"head_cm": 1,
		"head_Ra": 100,
		"neck_cm": 1,
		"neck_Ra": 100
	},
	{
		"section": [
			"dend[17]"
		],
		"type": "rand",
		"num": 1,
		"head_len": 0.5,
		"head_diam": 0.5,
		"neck_len": 1.58,
		"neck_diam": 0.077,
		"head_g_pas": 5e-05,
		"head_e_pas": -90,
		"neck_g_pas": 5e-05,
		"neck_e_pas": -90,
		"head_cm": 1,
		"head_Ra": 100,
		"neck_cm": 1,
		"neck_Ra": 100
	},
	{
		"section": [
			"dend[18]"
		],
		"type": "rand",
		"num": 2,
		"head_len": 0.5,
		"head_diam": 0.5,
		"neck_len": 1.58,
		"neck_diam": 0.077,
		"head_g_pas": 5e-05,
		"head_e_pas": -90,
		"neck_g_pas": 5e-05,
		"neck_e_pas": -90,
		"head_cm": 1,
		"head_Ra": 100,
		"neck_cm": 1,
		"neck_Ra": 100
	},
	{
		"section": [
			"dend[19]"
		],
		"type": "rand",
		"num": 1,
		"head_len": 0.5,
		"head_diam": 0.5,
		"neck_len": 1.58,
		"neck_diam": 0.077,
		"head_g_pas": 5e-05,
		"head_e_pas": -90,
		"neck_g_pas": 5e-05,
		"neck_e_pas": -90,
		"head_cm": 1,
		"head_Ra": 100,
		"neck_cm": 1,
		"neck_Ra": 100
	},
	{
		"section": [
			"dend[22]"
		],
		"type": "rand",
		"num": 1,
		"head_len": 0.5,
		"head_diam": 0.5,
		"neck_len": 1.58,
		"neck_diam": 0.077,
		"head_g_pas": 5e-05,
		"head_e_pas": -90,
		"neck_g_pas": 5e-05,
		"neck_e_pas": -90,
		"head_cm": 1,
		"head_Ra": 100,
		"neck_cm": 1,
		"neck_Ra": 100
	},
	{
		"section": [
			"dend[25]"
		],
		"type": "rand",
		"num": 2,
		"head_len": 0.5,
		"head_diam": 0.5,
		"neck_len": 1.58,
		"neck_diam": 0.077,
		"head_g_pas": 5e-05,
		"head_e_pas": -90,
		"neck_g_pas": 5e-05,
		"neck_e_pas": -90,
		"head_cm": 1,
		"head_Ra": 100,
		"neck_cm": 1,
		"neck_Ra": 100
	},
	{
		"section": [
			"dend[26]"
		],
		"type": "rand",
		"num": 2,
		"head_len": 0.5,
		"head_diam": 0.5,
		"neck_len": 1.58,
		"neck_diam": 0.077,
		"head_g_pas": 5e-05,
		"head_e_pas": -90,
		"neck_g_pas": 5e-05,
		"neck_e_pas": -90,
		"head_cm": 1,
		"head_Ra": 100,
		"neck_cm": 1,
		"neck_Ra": 100
	},
	{
		"section": [
			"dend[27]"
		],
		"type": "rand",
		"num": 3,
		"head_len": 0.5,
		"head_diam": 0.5,
		"neck_len": 1.58,
		"neck_diam": 0.077,
		"head_g_pas": 5e-05,
		"head_e_pas": -90,
		"neck_g_pas": 5e-05,
		"neck_e_pas": -90,
		"head_cm": 1,
		"head_Ra": 100,
		"neck_cm": 1,
		"neck_Ra": 100
	},
	{
		"section": [
			"dend[28]"
		],
		"type": "cluster",
		"num": [
			1,
			5
		],
		"head_len": 0.5,
		"head_diam": 0.5,
		"neck_len": 1.58,
		"neck_diam": 0.077,
		"head_g_pas": 5e-05,
		"head_e_pas": -90,
		"neck_g_pas": 5e-05,
		"neck_e_pas": -90,
		"head_cm": 1,
		"head_Ra": 100,
		"neck_cm": 1,
		"neck_Ra": 100
	},
	{
		"section": [
			"dend[28]"
		],
		"type": "rand",
		"num": 2,
		"head_len": 0.5,
		"head_diam": 0.5,
		"neck_len": 1.58,
		"neck_diam": 0.077,
		"head_g_pas": 5e-05,
		"head_e_pas": -90,
		"neck_g_pas": 5e-05,
		"neck_e_pas": -90,
		"head_cm": 1,
		"head_Ra": 100,
		"neck_cm": 1,
		"neck_Ra": 100
	},
	{
		"section": [
			"dend[29]"
		],
		"type": "rand",
		"num": 1,
		"head_len": 0.5,
		"head_diam": 0.5,
		"neck_len": 1.58,
		"neck_diam": 0.077,
		"head_g_pas": 5e-05,
		"head_e_pas": -90,
		"neck_g_pas": 5e-05,
		"neck_e_pas": -90,
		"head_cm": 1,
		"head_Ra": 100,
		"neck_cm": 1,
		"neck_Ra": 100
	},
	{
		"section": [
			"dend[30]"
		],
		"type": "rand",
		"num": 1,
		"head_len": 0.5,
		"head_diam": 0.5,
		"neck_len": 1.58,
		"neck_diam": 0.077,
		"head_g_pas": 5e-05,
		"head_e_pas": -90,
		"neck_g_pas": 5e-05,
		"neck_e_pas": -90,
		"head_cm": 1,
		"head_Ra": 100,
		"neck_cm": 1,
		"neck_Ra": 100
	},
	{
		"section": [
			"dend[31]"
		],
		"type": "rand",
		"num": 2,
		"head_len": 0.5,
		"head_diam": 0.5,
		"neck_len": 1.58,
		"neck_diam": 0.077,
		"head_g_pas": 5e-05,
		"head_e_pas": -90,
		"neck_g_pas": 5e-05,
		"neck_e_pas": -90,
		"head_cm": 1,
		"head_Ra": 100,
		"neck_cm": 1,
		"neck_Ra": 100
	},
	{
		"section": [
			"dend[32]"
		],
		"type": "rand",
		"num": 3,
		"head_len": 0.5,
		"head_diam": 0.5,
		"neck_len": 1.58,
		"neck_diam": 0.077,
		"head_g_pas": 5e-05,
		"head_e_pas": -90,
		"neck_g_pas": 5e-05,
		"neck_e_pas": -90,
		"head_cm": 1,
		"head_Ra": 100,
		"neck_cm": 1,
		"neck_Ra": 100
	},
	{
		"section": [
			"dend[33]"
		],
		"type": "rand",
		"num": 3,
		"head_len": 0.5,
		"head_diam": 0.5,
		"neck_len": 1.58,
		"neck_diam": 0.077,
		"head_g_pas": 5e-05,
		"head_e_pas": -90,
		"neck_g_pas": 5e-05,
		"neck_e_pas": -90,
		"head_cm": 1,
		"head_Ra": 100,
		"neck_cm": 1,
		"neck_Ra": 100
	},
	{
		"section": [
			"dend[34]"
		],
		"type": "rand",
		"num": 1,
		"head_len": 0.5,
		"head_diam": 0.5,
		"neck_len": 1.58,
		"neck_diam": 0.077,
		"head_g_pas": 5e-05,
		"head_e_pas": -90,
		"neck_g_pas": 5e-05,
		"neck_e_pas": -90,
		"head_cm": 1,
		"head_Ra": 100,
		"neck_cm": 1,
		"neck_Ra": 100
	},
	{
		"section": [
			"dend[35]"
		],
		"type": "cluster",
		"num": [
			1,
			5
		],
		"head_len": 0.5,
		"head_diam": 0.5,
		"neck_len": 1.58,
		"neck_diam": 0.077,
		"head_g_pas": 5e-05,
		"head_e_pas": -90,
		"neck_g_pas": 5e-05,
		"neck_e_pas": -90,
		"head_cm": 1,
		"head_Ra": 100,
		"neck_cm": 1,
		"neck_Ra": 100
	},
	{
		"section": [
			"dend[36]"
		],
		"type": "rand",
		"num": 2,
		"head_len": 0.5,
		"head_diam": 0.5,
		"neck_len": 1.58,
		"neck_diam": 0.077,
		"head_g_pas": 5e-05,
		"head_e_pas": -90,
		"neck_g_pas": 5e-05,
		"neck_e_pas": -90,
		"head_cm": 1,
		"head_Ra": 100,
		"neck_cm": 1,
		"neck_Ra": 100
	},
	{
		"section": [
			"dend[37]"
		],
		"type": "rand",
		"num": 1,
		"head_len": 0.5,
		"head_diam": 0.5,
		"neck_len": 1.58,
		"neck_diam": 0.077,
		"head_g_pas": 5e-05,
		"head_e_pas": -90,
		"neck_g_pas": 5e-05,
		"neck_e_pas": -90,
		"head_cm": 1,
		"head_Ra": 100,
		"neck_cm": 1,
		"neck_Ra": 100
	},
	{
		"section": [
			"dend[38]"
		],
		"type": "rand",
		"num": 2,
		"head_len": 0.5,
		"head_diam": 0.5,
		"neck_len": 1.58,
		"neck_diam": 0.077,
		"head_g_pas": 5e-05,
		"head_e_pas": -90,
		"neck_g_pas": 5e-05,
		"neck_e_pas": -90,
		"head_cm": 1,
		"head_Ra": 100,
		"neck_cm": 1,
		"neck_Ra": 100
	},
	{
		"section": [
			"dend[39]"
		],
		"type": "cluster",
		"num": [
			1,
			5
		],
		"head_len": 0.5,
		"head_diam": 0.5,
		"neck_len": 1.58,
		"neck_diam": 0.077,
		"head_g_pas": 5e-05,
		"head_e_pas": -90,
		"neck_g_pas": 5e-05,
		"neck_e_pas": -90,
		"head_cm": 1,
		"head_Ra": 100,
		"neck_cm": 1,
		"neck_Ra": 100
	},
	{
		"section": [
			"dend[40]"
		],
		"type": "cluster",
		"num": [
			1,
			5
		],
		"head_len": 0.5,
		"head_diam": 0.5,
		"neck_len": 1.58,
		"neck_diam": 0.077,
		"head_g_pas": 5e-05,
		"head_e_pas": -90,
		"neck_g_pas": 5e-05,
		"neck_e_pas": -90,
		"head_cm": 1,
		"head_Ra": 100,
		"neck_cm": 1,
		"neck_Ra": 100
	},
	{
		"section": [
			"dend[41]"
		],
		"type": "rand",
		"num": 1,
		"head_len": 0.5,
		"head_diam": 0.5,
		"neck_len": 1.58,
		"neck_diam": 0.077,
		"head_g_pas": 5e-05,
		"head_e_pas": -90,
		"neck_g_pas": 5e-05,
		"neck_e_pas": -90,
		"head_cm": 1,
		"head_Ra": 100,
		"neck_cm": 1,
		"neck_Ra": 100
	},
	{
		"section": [
			"dend[42]"
		],
		"type": "rand",
		"num": 2,
		"head_len": 0.5,
		"head_diam": 0.5,
		"neck_len": 1.58,
		"neck_diam": 0.077,
		"head_g_pas": 5e-05,
		"head_e_pas": -90,
		"neck_g_pas": 5e-05,
		"neck_e_pas": -90,
		"head_cm": 1,
		"head_Ra": 100,
		"neck_cm": 1,
		"neck_Ra": 100
	},
	{
		"section": [
			"dend[43]"
		],
		"type": "rand",
		"num": 2,
		"head_len": 0.5,
		"head_diam": 0.5,
		"neck_len": 1.58,
		"neck_diam": 0.077,
		"head_g_pas": 5e-05,
		"head_e_pas": -90,
		"neck_g_pas": 5e-05,
		"neck_e_pas": -90,
		"head_cm": 1,
		"head_Ra": 100,
		"neck_cm": 1,
		"neck_Ra": 100
	},
	{
		"section": [
			"dend[44]"
		],
		"type": "rand",
		"num": 2,
		"head_len": 0.5,
		"head_diam": 0.5,
		"neck_len": 1.58,
		"neck_diam": 0.077,
		"head_g_pas": 5e-05,
		"head_e_pas": -90,
		"neck_g_pas": 5e-05,
		"neck_e_pas": -90,
		"head_cm": 1,
		"head_Ra": 100,
		"neck_cm": 1,
		"neck_Ra": 100
	},
	{
		"section": [
			"dend[45]"
		],
		"type": "cluster",
		"num": [
			1,
			5
		],
		"head_len": 0.5,
		"head_diam": 0.5,
		"neck_len": 1.58,
		"neck_diam": 0.077,
		"head_g_pas": 5e-05,
		"head_e_pas": -90,
		"neck_g_pas": 5e-05,
		"neck_e_pas": -90,
		"head_cm": 1,
		"head_Ra": 100,
		"neck_cm": 1,
		"neck_Ra": 100
	},
	{
		"section": [
			"dend[46]"
		],
		"type": "rand",
		"num": 1,
		"head_len": 0.5,
		"head_diam": 0.5,
		"neck_len": 1.58,
		"neck_diam": 0.077,
		"head_g_pas": 5e-05,
		"head_e_pas": -90,
		"neck_g_pas": 5e-05,
		"neck_e_pas": -90,
		"head_cm": 1,
		"head_Ra": 100,
		"neck_cm": 1,
		"neck_Ra": 100
	},
	{
		"section": [
			"dend[48]"
		],
		"type": "rand",
		"num": 1,
		"head_len": 0.5,
		"head_diam": 0.5,
		"neck_len": 1.58,
		"neck_diam": 0.077,
		"head_g_pas": 5e-05,
		"head_e_pas": -90,
		"neck_g_pas": 5e-05,
		"neck_e_pas": -90,
		"head_cm": 1,
		"head_Ra": 100,
		"neck_cm": 1,
		"neck_Ra": 100
	},
	{
		"section": [
			"dend[51]"
		],
		"type": "rand",
		"num": 1,
		"head_len": 0.5,
		"head_diam": 0.5,
		"neck_len": 1.58,
		"neck_diam": 0.077,
		"head_g_pas": 5e-05,
		"head_e_pas": -90,
		"neck_g_pas": 5e-05,
		"neck_e_pas": -90,
		"head_cm": 1,
		"head_Ra": 100,
		"neck_cm": 1,
		"neck_Ra": 100
	},
	{
		"section": [
			"dend[53]"
		],
		"type": "rand",
		"num": 2,
		"head_len": 0.5,
		"head_diam": 0.5,
		"neck_len": 1.58,
		"neck_diam": 0.077,
		"head_g_pas": 5e-05,
		"head_e_pas": -90,
		"neck_g_pas": 5e-05,
		"neck_e_pas": -90,
		"head_cm": 1,
		"head_Ra": 100,
		"neck_cm": 1,
		"neck_Ra": 100
	},
	{
		"section": [
			"dend[54]"
		],
		"type": "rand",
		"num": 3,
		"head_len": 0.5,
		"head_diam": 0.5,
		"neck_len": 1.58,
		"neck_diam": 0.077,
		"head_g_pas": 5e-05,
		"head_e_pas": -90,
		"neck_g_pas": 5e-05,
		"neck_e_pas": -90,
		"head_cm": 1,
		"head_Ra": 100,
		"neck_cm": 1,
		"neck_Ra": 100
	},
	{
		"section": [
			"dend[56]"
		],
		"type": "rand",
		"num": 1,
		"head_len": 0.5,
		"head_diam": 0.5,
		"neck_len": 1.58,
		"neck_diam": 0.077,
		"head_g_pas": 5e-05,
		"head_e_pas": -90,
		"neck_g_pas": 5e-05,
		"neck_e_pas": -90,
		"head_cm": 1,
		"head_Ra": 100,
		"neck_cm": 1,
		"neck_Ra": 100
	},
	{
		"section": [
			"dend[57]"
		],
		"type": "rand",
		"num": 1,
		"head_len": 0.5,
		"head_diam": 0.5,
		"neck_len": 1.58,
		"neck_diam": 0.077,
		"head_g_pas": 5e-05,
		"head_e_pas": -90,
		"neck_g_pas": 5e-05,
		"neck_e_pas": -90,
		"head_cm": 1,
		"head_Ra": 100,
		"neck_cm": 1,
		"neck_Ra": 100
	},
	{
		"section": [
			"dend[58]"
		],
		"type": "cluster",
		"num": [
			1,
			5
		],
		"head_len": 0.5,
		"head_diam": 0.5,
		"neck_len": 1.58,
		"neck_diam": 0.077,
		"head_g_pas": 5e-05,
		"head_e_pas": -90,
		"neck_g_pas": 5e-05,
		"neck_e_pas": -90,
		"head_cm": 1,
		"head_Ra": 100,
		"neck_cm": 1,
		"neck_Ra": 100
	},
	{
		"section": [
			"dend[59]"
		],
		"type": "cluster",
		"num": [
			1,
			5
		],
		"head_len": 0.5,
		"head_diam": 0.5,
		"neck_len": 1.58,
		"neck_diam": 0.077,
		"head_g_pas": 5e-05,
		"head_e_pas": -90,
		"neck_g_pas": 5e-05,
		"neck_e_pas": -90,
		"head_cm": 1,
		"head_Ra": 100,
		"neck_cm": 1,
		"neck_Ra": 100
	},
	{
		"section": [
			"dend[59]"
		],
		"type": "rand",
		"num": 3,
		"head_len": 0.5,
		"head_diam": 0.5,
		"neck_len": 1.58,
		"neck_diam": 0.077,
		"head_g_pas": 5e-05,
		"head_e_pas": -90,
		"neck_g_pas": 5e-05,
		"neck_e_pas": -90,
		"head_cm": 1,
		"head_Ra": 100,
		"neck_cm": 1,
		"neck_Ra": 100
	},
	{
		"section": [
			"dend[60]"
		],
		"type": "cluster",
		"num": [
			1,
			5
		],
		"head_len": 0.5,
		"head_diam": 0.5,
		"neck_len": 1.58,
		"neck_diam": 0.077,
		"head_g_pas": 5e-05,
		"head_e_pas": -90,
		"neck_g_pas": 5e-05,
		"neck_e_pas": -90,
		"head_cm": 1,
		"head_Ra": 100,
		"neck_cm": 1,
		"neck_Ra": 100
	},
	{
		"section": [
			"dend[61]"
		],
		"type": "rand",
		"num": 3,
		"head_len": 0.5,
		"head_diam": 0.5,
		"neck_len": 1.58,
		"neck_diam": 0.077,
		"head_g_pas": 5e-05,
		"head_e_pas": -90,
		"neck_g_pas": 5e-05,
		"neck_e_pas": -90,
		"head_cm": 1,
		"head_Ra": 100,
		"neck_cm": 1,
		"neck_Ra": 100
	},
	{
		"section": [
			"dend[62]"
		],
		"type": "rand",
		"num": 3,
		"head_len": 0.5,
		"head_diam": 0.5,
		"neck_len": 1.58,
		"neck_diam": 0.077,
		"head_g_pas": 5e-05,
		"head_e_pas": -90,
		"neck_g_pas": 5e-05,
		"neck_e_pas": -90,
		"head_cm": 1,
		"head_Ra": 100,
		"neck_cm": 1,
		"neck_Ra": 100
	},
	{
		"section": [
			"dend[63]"
		],
		"type": "rand",
		"num": 2,
		"head_len": 0.5,
		"head_diam": 0.5,
		"neck_len": 1.58,
		"neck_diam": 0.077,
		"head_g_pas": 5e-05,
		"head_e_pas": -90,
		"neck_g_pas": 5e-05,
		"neck_e_pas": -90,
		"head_cm": 1,
		"head_Ra": 100,
		"neck_cm": 1,
		"neck_Ra": 100
	},
	{
		"section": [
			"dend[64]"
		],
		"type": "rand",
		"num": 1,
		"head_len": 0.5,
		"head_diam": 0.5,
		"neck_len": 1.58,
		"neck_diam": 0.077,
		"head_g_pas": 5e-05,
		"head_e_pas": -90,
		"neck_g_pas": 5e-05,
		"neck_e_pas": -90,
		"head_cm": 1,
		"head_Ra": 100,
		"neck_cm": 1,
		"neck_Ra": 100
	},
	{
		"section": [
			"dend[65]"
		],
		"type": "rand",
		"num": 1,
		"head_len": 0.5,
		"head_diam": 0.5,
		"neck_len": 1.58,
		"neck_diam": 0.077,
		"head_g_pas": 5e-05,
		"head_e_pas": -90,
		"neck_g_pas": 5e-05,
		"neck_e_pas": -90,
		"head_cm": 1,
		"head_Ra": 100,
		"neck_cm": 1,
		"neck_Ra": 100
	},
	{
		"section": [
			"dend[66]"
		],
		"type": "rand",
		"num": 4,
		"head_len": 0.5,
		"head_diam": 0.5,
		"neck_len": 1.58,
		"neck_diam": 0.077,
		"head_g_pas": 5e-05,
		"head_e_pas": -90,
		"neck_g_pas": 5e-05,
		"neck_e_pas": -90,
		"head_cm": 1,
		"head_Ra": 100,
		"neck_cm": 1,
		"neck_Ra": 100
	},
	{
		"section": [
			"dend[67]"
		],
		"type": "rand",
		"num": 4,
		"head_len": 0.5,
		"head_diam": 0.5,
		"neck_len": 1.58,
		"neck_diam": 0.077,
		"head_g_pas": 5e-05,
		"head_e_pas": -90,
		"neck_g_pas": 5e-05,
		"neck_e_pas": -90,
		"head_cm": 1,
		"head_Ra": 100,
		"neck_cm": 1,
		"neck_Ra": 100
	},
	{
		"section": [
			"dend[68]"
		],
		"type": "rand",
		"num": 2,
		"head_len": 0.5,
		"head_diam": 0.5,
		"neck_len": 1.58,
		"neck_diam": 0.077,
		"head_g_pas": 5e-05,
		"head_e_pas": -90,
		"neck_g_pas": 5e-05,
		"neck_e_pas": -90,
		"head_cm": 1,
		"head_Ra": 100,
		"neck_cm": 1,
		"neck_Ra": 100
	},
	{
		"section": [
			"dend[69]"
		],
		"type": "rand",
		"num": 2,
		"head_len": 0.5,
		"head_diam": 0.5,
		"neck_len": 1.58,
		"neck_diam": 0.077,
		"head_g_pas": 5e-05,
		"head_e_pas": -90,
		"neck_g_pas": 5e-05,
		"neck_e_pas": -90,
		"head_cm": 1,
		"head_Ra": 100,
		"neck_cm": 1,
		"neck_Ra": 100
	},
	{
		"section": [
			"dend[70]"
		],
		"type": "cluster",
		"num": [
			1,
			5
		],
		"head_len": 0.5,
		"head_diam": 0.5,
		"neck_len": 1.58,
		"neck_diam": 0.077,
		"head_g_pas": 5e-05,
		"head_e_pas": -90,
		"neck_g_pas": 5e-05,
		"neck_e_pas": -90,
		"head_cm": 1,
		"head_Ra": 100,
		"neck_cm": 1,
		"neck_Ra": 100
	},
	{
		"section": [
			"dend[70]"
		],
		"type": "rand",
		"num": 2,
		"head_len": 0.5,
		"head_diam": 0.5,
		"neck_len": 1.58,
		"neck_diam": 0.077,
		"head_g_pas": 5e-05,
		"head_e_pas": -90,
		"neck_g_pas": 5e-05,
		"neck_e_pas": -90,
		"head_cm": 1,
		"head_Ra": 100,
		"neck_cm": 1,
		"neck_Ra": 100
	},
	{
		"section": [
			"dend[71]"
		],
		"type": "rand",
		"num": 1,
		"head_len": 0.5,
		"head_diam": 0.5,
		"neck_len": 1.58,
		"neck_diam": 0.077,
		"head_g_pas": 5e-05,
		"head_e_pas": -90,
		"neck_g_pas": 5e-05,
		"neck_e_pas": -90,
		"head_cm": 1,
		"head_Ra": 100,
		"neck_cm": 1,
		"neck_Ra": 100
	},
	{
		"section": [
			"dend[72]"
		],
		"type": "cluster",
		"num": [
			1,
			5
		],
		"head_len": 0.5,
		"head_diam": 0.5,
		"neck_len": 1.58,
		"neck_diam": 0.077,
		"head_g_pas": 5e-05,
		"head_e_pas": -90,
		"neck_g_pas": 5e-05,
		"neck_e_pas": -90,
		"head_cm": 1,
		"head_Ra": 100,
		"neck_cm": 1,
		"neck_Ra": 100
	},
	{
		"section": [
			"dend[73]"
		],
		"type": "rand",
		"num": 1,
		"head_len": 0.5,
		"head_diam": 0.5,
		"neck_len": 1.58,
		"neck_diam": 0.077,
		"head_g_pas": 5e-05,
		"head_e_pas": -90,
		"neck_g_pas": 5e-05,
		"neck_e_pas": -90,
		"head_cm": 1,
		"head_Ra": 100,
		"neck_cm": 1,
		"neck_Ra": 100
	},
	{
		"section": [
			"dend[74]"
		],
		"type": "rand",
		"num": 3,
		"head_len": 0.5,
		"head_diam": 0.5,
		"neck_len": 1.58,
		"neck_diam": 0.077,
		"head_g_pas": 5e-05,
		"head_e_pas": -90,
		"neck_g_pas": 5e-05,
		"neck_e_pas": -90,
		"head_cm": 1,
		"head_Ra": 100,
		"neck_cm": 1,
		"neck_Ra": 100
	},
	{
		"section": [
			"dend[75]"
		],
		"type": "rand",
		"num": 1,
		"head_len": 0.5,
		"head_diam": 0.5,
		"neck_len": 1.58,
		"neck_diam": 0.077,
		"head_g_pas": 5e-05,
		"head_e_pas": -90,
		"neck_g_pas": 5e-05,
		"neck_e_pas": -90,
		"head_cm": 1,
		"head_Ra": 100,
		"neck_cm": 1,
		"neck_Ra": 100
	},
	{
		"section": [
			"dend[76]"
		],
		"type": "rand",
		"num": 1,
		"head_len": 0.5,
		"head_diam": 0.5,
		"neck_len": 1.58,
		"neck_diam": 0.077,
		"head_g_pas": 5e-05,
		"head_e_pas": -90,
		"neck_g_pas": 5e-05,
		"neck_e_pas": -90,
		"head_cm": 1,
		"head_Ra": 100,
		"neck_cm": 1,
		"neck_Ra": 100
	},
	{
		"section": [
			"dend[77]"
		],
		"type": "rand",
		"num": 1,
		"head_len": 0.5,
		"head_diam": 0.5,
		"neck_len": 1.58,
		"neck_diam": 0.077,
		"head_g_pas": 5e-05,
		"head_e_pas": -90,
		"neck_g_pas": 5e-05,
		"neck_e_pas": -90,
		"head_cm": 1,
		"head_Ra": 100,
		"neck_cm": 1,
		"neck_Ra": 100
	},
	{
		"section": [
			"dend[78]"
		],
		"type": "rand",
		"num": 2,
		"head_len": 0.5,
		"head_diam": 0.5,
		"neck_len": 1.58,
		"neck_diam": 0.077,
		"head_g_pas": 5e-05,
		"head_e_pas": -90,
		"neck_g_pas": 5e-05,
		"neck_e_pas": -90,
		"head_cm": 1,
		"head_Ra": 100,
		"neck_cm": 1,
		"neck_Ra": 100
	},
	{
		"section": [
			"dend[79]"
		],
		"type": "rand",
		"num": 1,
		"head_len": 0.5,
		"head_diam": 0.5,
		"neck_len": 1.58,
		"neck_diam": 0.077,
		"head_g_pas": 5e-05,
		"head_e_pas": -90,
		"neck_g_pas": 5e-05,
		"neck_e_pas": -90,
		"head_cm": 1,
		"head_Ra": 100,
		"neck_cm": 1,
		"neck_Ra": 100
	},
	{
		"section": [
			"dend[80]"
		],
		"type": "rand",
		"num": 1,
		"head_len": 0.5,
		"head_diam": 0.5,
		"neck_len": 1.58,
		"neck_diam": 0.077,
		"head_g_pas": 5e-05,
		"head_e_pas": -90,
		"neck_g_pas": 5e-05,
		"neck_e_pas": -90,
		"head_cm": 1,
		"head_Ra": 100,
		"neck_cm": 1,
		"neck_Ra": 100
	},
	{
		"section": [
			"dend[81]"
		],
		"type": "rand",
		"num": 2,
		"head_len": 0.5,
		"head_diam": 0.5,
		"neck_len": 1.58,
		"neck_diam": 0.077,
		"head_g_pas": 5e-05,
		"head_e_pas": -90,
		"neck_g_pas": 5e-05,
		"neck_e_pas": -90,
		"head_cm": 1,
		"head_Ra": 100,
		"neck_cm": 1,
		"neck_Ra": 100
	},
	{
		"section": [
			"dend[82]"
		],
		"type": "rand",
		"num": 2,
		"head_len": 0.5,
		"head_diam": 0.5,
		"neck_len": 1.58,
		"neck_diam": 0.077,
		"head_g_pas": 5e-05,
		"head_e_pas": -90,
		"neck_g_pas": 5e-05,
		"neck_e_pas": -90,
		"head_cm": 1,
		"head_Ra": 100,
		"neck_cm": 1,
		"neck_Ra": 100
	},
	{
		"section": [
			"dend[83]"
		],
		"type": "rand",
		"num": 1,
		"head_len": 0.5,
		"head_diam": 0.5,
		"neck_len": 1.58,
		"neck_diam": 0.077,
		"head_g_pas": 5e-05,
		"head_e_pas": -90,
		"neck_g_pas": 5e-05,
		"neck_e_pas": -90,
		"head_cm": 1,
		"head_Ra": 100,
		"neck_cm": 1,
		"neck_Ra": 100
	},
	{
		"section": [
			"apic[0]"
		],
		"type": "cluster",
		"num": [
			1,
			5
		],
		"head_len": 0.5,
		"head_diam": 0.5,
		"neck_len": 1.58,
		"neck_diam": 0.077,
		"head_g_pas": 5e-05,
		"head_e_pas": -90,
		"neck_g_pas": 5e-05,
		"neck_e_pas": -90,
		"head_cm": 1,
		"head_Ra": 100,
		"neck_cm": 1,
		"neck_Ra": 100
	},
	{
		"section": [
			"apic[1]"
		],
		"type": "cluster",
		"num": [
			2,
			5,
			5
		],
		"head_len": 0.5,
		"head_diam": 0.5,
		"neck_len": 1.58,
		"neck_diam": 0.077,
		"head_g_pas": 5e-05,
		"head_e_pas": -90,
		"neck_g_pas": 5e-05,
		"neck_e_pas": -90,
		"head_cm": 1,
		"head_Ra": 100,
		"neck_cm": 1,
		"neck_Ra": 100
	},
	{
		"section": [
			"apic[1]"
		],
		"type": "rand",
		"num": 3,
		"head_len": 0.5,
		"head_diam": 0.5,
		"neck_len": 1.58,
		"neck_diam": 0.077,
		"head_g_pas": 5e-05,
		"head_e_pas": -90,
		"neck_g_pas": 5e-05,
		"neck_e_pas": -90,
		"head_cm": 1,
		"head_Ra": 100,
		"neck_cm": 1,
		"neck_Ra": 100
	},
	{
		"section": [
			"apic[2]"
		],
		"type": "cluster",
		"num": [
			1,
			5
		],
		"head_len": 0.5,
		"head_diam": 0.5,
		"neck_len": 1.58,
		"neck_diam": 0.077,
		"head_g_pas": 5e-05,
		"head_e_pas": -90,
		"neck_g_pas": 5e-05,
		"neck_e_pas": -90,
		"head_cm": 1,
		"head_Ra": 100,
		"neck_cm": 1,
		"neck_Ra": 100
	},
	{
		"section": [
			"apic[2]"
		],
		"type": "rand",
		"num": 1,
		"head_len": 0.5,
		"head_diam": 0.5,
		"neck_len": 1.58,
		"neck_diam": 0.077,
		"head_g_pas": 5e-05,
		"head_e_pas": -90,
		"neck_g_pas": 5e-05,
		"neck_e_pas": -90,
		"head_cm": 1,
		"head_Ra": 100,
		"neck_cm": 1,
		"neck_Ra": 100
	},
	{
		"section": [
			"apic[3]"
		],
		"type": "cluster",
		"num": [
			1,
			5
		],
		"head_len": 0.5,
		"head_diam": 0.5,
		"neck_len": 1.58,
		"neck_diam": 0.077,
		"head_g_pas": 5e-05,
		"head_e_pas": -90,
		"neck_g_pas": 5e-05,
		"neck_e_pas": -90,
		"head_cm": 1,
		"head_Ra": 100,
		"neck_cm": 1,
		"neck_Ra": 100
	},
	{
		"section": [
			"apic[3]"
		],
		"type": "rand",
		"num": 3,
		"head_len": 0.5,
		"head_diam": 0.5,
		"neck_len": 1.58,
		"neck_diam": 0.077,
		"head_g_pas": 5e-05,
		"head_e_pas": -90,
		"neck_g_pas": 5e-05,
		"neck_e_pas": -90,
		"head_cm": 1,
		"head_Ra": 100,
		"neck_cm": 1,
		"neck_Ra": 100
	},
	{
		"section": [
			"apic[4]"
		],
		"type": "rand",
		"num": 1,
		"head_len": 0.5,
		"head_diam": 0.5,
		"neck_len": 1.58,
		"neck_diam": 0.077,
		"head_g_pas": 5e-05,
		"head_e_pas": -90,
		"neck_g_pas": 5e-05,
		"neck_e_pas": -90,
		"head_cm": 1,
		"head_Ra": 100,
		"neck_cm": 1,
		"neck_Ra": 100
	},
	{
		"section": [
			"apic[5]"
		],
		"type": "rand",
		"num": 1,
		"head_len": 0.5,
		"head_diam": 0.5,
		"neck_len": 1.58,
		"neck_diam": 0.077,
		"head_g_pas": 5e-05,
		"head_e_pas": -90,
		"neck_g_pas": 5e-05,
		"neck_e_pas": -90,
		"head_cm": 1,
		"head_Ra": 100,
		"neck_cm": 1,
		"neck_Ra": 100
	},
	{
		"section": [
			"apic[6]"
		],
		"type": "rand",
		"num": 1,
		"head_len": 0.5,
		"head_diam": 0.5,
		"neck_len": 1.58,
		"neck_diam": 0.077,
		"head_g_pas": 5e-05,
		"head_e_pas": -90,
		"neck_g_pas": 5e-05,
		"neck_e_pas": -90,
		"head_cm": 1,
		"head_Ra": 100,
		"neck_cm": 1,
		"neck_Ra": 100
	},
	{
		"section": [
			"apic[7]"
		],
		"type": "rand",
		"num": 2,
		"head_len": 0.5,
		"head_diam": 0.5,
		"neck_len": 1.58,
		"neck_diam": 0.077,
		"head_g_pas": 5e-05,
		"head_e_pas": -90,
		"neck_g_pas": 5e-05,
		"neck_e_pas": -90,
		"head_cm": 1,
		"head_Ra": 100,
		"neck_cm": 1,
		"neck_Ra": 100
	},
	{
		"section": [
			"apic[8]"
		],
		"type": "rand",
		"num": 1,
		"head_len": 0.5,
		"head_diam": 0.5,
		"neck_len": 1.58,
		"neck_diam": 0.077,
		"head_g_pas": 5e-05,
		"head_e_pas": -90,
		"neck_g_pas": 5e-05,
		"neck_e_pas": -90,
		"head_cm": 1,
		"head_Ra": 100,
		"neck_cm": 1,
		"neck_Ra": 100
	},
	{
		"section": [
			"apic[9]"
		],
		"type": "cluster",
		"num": [
			1,
			5
		],
		"head_len": 0.5,
		"head_diam": 0.5,
		"neck_len": 1.58,
		"neck_diam": 0.077,
		"head_g_pas": 5e-05,
		"head_e_pas": -90,
		"neck_g_pas": 5e-05,
		"neck_e_pas": -90,
		"head_cm": 1,
		"head_Ra": 100,
		"neck_cm": 1,
		"neck_Ra": 100
	},
	{
		"section": [
			"apic[9]"
		],
		"type": "rand",
		"num": 1,
		"head_len": 0.5,
		"head_diam": 0.5,
		"neck_len": 1.58,
		"neck_diam": 0.077,
		"head_g_pas": 5e-05,
		"head_e_pas": -90,
		"neck_g_pas": 5e-05,
		"neck_e_pas": -90,
		"head_cm": 1,
		"head_Ra": 100,
		"neck_cm": 1,
		"neck_Ra": 100
	},
	{
		"section": [
			"apic[10]"
		],
		"type": "rand",
		"num": 4,
		"head_len": 0.5,
		"head_diam": 0.5,
		"neck_len": 1.58,
		"neck_diam": 0.077,
		"head_g_pas": 5e-05,
		"head_e_pas": -90,
		"neck_g_pas": 5e-05,
		"neck_e_pas": -90,
		"head_cm": 1,
		"head_Ra": 100,
		"neck_cm": 1,
		"neck_Ra": 100
	},
	{
		"section": [
			"apic[12]"
		],
		"type": "cluster",
		"num": [
			1,
			5
		],
		"head_len": 0.5,
		"head_diam": 0.5,
		"neck_len": 1.58,
		"neck_diam": 0.077,
		"head_g_pas": 5e-05,
		"head_e_pas": -90,
		"neck_g_pas": 5e-05,
		"neck_e_pas": -90,
		"head_cm": 1,
		"head_Ra": 100,
		"neck_cm": 1,
		"neck_Ra": 100
	},
	{
		"section": [
			"apic[13]"
		],
		"type": "cluster",
		"num": [
			1,
			5
		],
		"head_len": 0.5,
		"head_diam": 0.5,
		"neck_len": 1.58,
		"neck_diam": 0.077,
		"head_g_pas": 5e-05,
		"head_e_pas": -90,
		"neck_g_pas": 5e-05,
		"neck_e_pas": -90,
		"head_cm": 1,
		"head_Ra": 100,
		"neck_cm": 1,
		"neck_Ra": 100
	},
	{
		"section": [
			"apic[13]"
		],
		"type": "rand",
		"num": 2,
		"head_len": 0.5,
		"head_diam": 0.5,
		"neck_len": 1.58,
		"neck_diam": 0.077,
		"head_g_pas": 5e-05,
		"head_e_pas": -90,
		"neck_g_pas": 5e-05,
		"neck_e_pas": -90,
		"head_cm": 1,
		"head_Ra": 100,
		"neck_cm": 1,
		"neck_Ra": 100
	},
	{
		"section": [
			"apic[14]"
		],
		"type": "cluster",
		"num": [
			2,
			5,
			5
		],
		"head_len": 0.5,
		"head_diam": 0.5,
		"neck_len": 1.58,
		"neck_diam": 0.077,
		"head_g_pas": 5e-05,
		"head_e_pas": -90,
		"neck_g_pas": 5e-05,
		"neck_e_pas": -90,
		"head_cm": 1,
		"head_Ra": 100,
		"neck_cm": 1,
		"neck_Ra": 100
	},
	{
		"section": [
			"apic[14]"
		],
		"type": "rand",
		"num": 1,
		"head_len": 0.5,
		"head_diam": 0.5,
		"neck_len": 1.58,
		"neck_diam": 0.077,
		"head_g_pas": 5e-05,
		"head_e_pas": -90,
		"neck_g_pas": 5e-05,
		"neck_e_pas": -90,
		"head_cm": 1,
		"head_Ra": 100,
		"neck_cm": 1,
		"neck_Ra": 100
	},
	{
		"section": [
			"apic[15]"
		],
		"type": "rand",
		"num": 1,
		"head_len": 0.5,
		"head_diam": 0.5,
		"neck_len": 1.58,
		"neck_diam": 0.077,
		"head_g_pas": 5e-05,
		"head_e_pas": -90,
		"neck_g_pas": 5e-05,
		"neck_e_pas": -90,
		"head_cm": 1,
		"head_Ra": 100,
		"neck_cm": 1,
		"neck_Ra": 100
	},
	{
		"section": [
			"apic[16]"
		],
		"type": "rand",
		"num": 1,
		"head_len": 0.5,
		"head_diam": 0.5,
		"neck_len": 1.58,
		"neck_diam": 0.077,
		"head_g_pas": 5e-05,
		"head_e_pas": -90,
		"neck_g_pas": 5e-05,
		"neck_e_pas": -90,
		"head_cm": 1,
		"head_Ra": 100,
		"neck_cm": 1,
		"neck_Ra": 100
	},
	{
		"section": [
			"apic[17]"
		],
		"type": "cluster",
		"num": [
			1,
			5
		],
		"head_len": 0.5,
		"head_diam": 0.5,
		"neck_len": 1.58,
		"neck_diam": 0.077,
		"head_g_pas": 5e-05,
		"head_e_pas": -90,
		"neck_g_pas": 5e-05,
		"neck_e_pas": -90,
		"head_cm": 1,
		"head_Ra": 100,
		"neck_cm": 1,
		"neck_Ra": 100
	},
	{
		"section": [
			"apic[18]"
		],
		"type": "rand",
		"num": 3,
		"head_len": 0.5,
		"head_diam": 0.5,
		"neck_len": 1.58,
		"neck_diam": 0.077,
		"head_g_pas": 5e-05,
		"head_e_pas": -90,
		"neck_g_pas": 5e-05,
		"neck_e_pas": -90,
		"head_cm": 1,
		"head_Ra": 100,
		"neck_cm": 1,
		"neck_Ra": 100
	},
	{
		"section": [
			"apic[19]"
		],
		"type": "cluster",
		"num": [
			1,
			5
		],
		"head_len": 0.5,
		"head_diam": 0.5,
		"neck_len": 1.58,
		"neck_diam": 0.077,
		"head_g_pas": 5e-05,
		"head_e_pas": -90,
		"neck_g_pas": 5e-05,
		"neck_e_pas": -90,
		"head_cm": 1,
		"head_Ra": 100,
		"neck_cm": 1,
		"neck_Ra": 100
	},
	{
		"section": [
			"apic[19]"
		],
		"type": "rand",
		"num": 2,
		"head_len": 0.5,
		"head_diam": 0.5,
		"neck_len": 1.58,
		"neck_diam": 0.077,
		"head_g_pas": 5e-05,
		"head_e_pas": -90,
		"neck_g_pas": 5e-05,
		"neck_e_pas": -90,
		"head_cm": 1,
		"head_Ra": 100,
		"neck_cm": 1,
		"neck_Ra": 100
	},
	{
		"section": [
			"apic[20]"
		],
		"type": "cluster",
		"num": [
			1,
			5
		],
		"head_len": 0.5,
		"head_diam": 0.5,
		"neck_len": 1.58,
		"neck_diam": 0.077,
		"head_g_pas": 5e-05,
		"head_e_pas": -90,
		"neck_g_pas": 5e-05,
		"neck_e_pas": -90,
		"head_cm": 1,
		"head_Ra": 100,
		"neck_cm": 1,
		"neck_Ra": 100
	},
	{
		"section": [
			"apic[20]"
		],
		"type": "rand",
		"num": 2,
		"head_len": 0.5,
		"head_diam": 0.5,
		"neck_len": 1.58,
		"neck_diam": 0.077,
		"head_g_pas": 5e-05,
		"head_e_pas": -90,
		"neck_g_pas": 5e-05,
		"neck_e_pas": -90,
		"head_cm": 1,
		"head_Ra": 100,
		"neck_cm": 1,
		"neck_Ra": 100
	},
	{
		"section": [
			"apic[21]"
		],
		"type": "rand",
		"num": 1,
		"head_len": 0.5,
		"head_diam": 0.5,
		"neck_len": 1.58,
		"neck_diam": 0.077,
		"head_g_pas": 5e-05,
		"head_e_pas": -90,
		"neck_g_pas": 5e-05,
		"neck_e_pas": -90,
		"head_cm": 1,
		"head_Ra": 100,
		"neck_cm": 1,
		"neck_Ra": 100
	},
	{
		"section": [
			"apic[22]"
		],
		"type": "rand",
		"num": 2,
		"head_len": 0.5,
		"head_diam": 0.5,
		"neck_len": 1.58,
		"neck_diam": 0.077,
		"head_g_pas": 5e-05,
		"head_e_pas": -90,
		"neck_g_pas": 5e-05,
		"neck_e_pas": -90,
		"head_cm": 1,
		"head_Ra": 100,
		"neck_cm": 1,
		"neck_Ra": 100
	},
	{
		"section": [
			"apic[23]"
		],
		"type": "rand",
		"num": 1,
		"head_len": 0.5,
		"head_diam": 0.5,
		"neck_len": 1.58,
		"neck_diam": 0.077,
		"head_g_pas": 5e-05,
		"head_e_pas": -90,
		"neck_g_pas": 5e-05,
		"neck_e_pas": -90,
		"head_cm": 1,
		"head_Ra": 100,
		"neck_cm": 1,
		"neck_Ra": 100
	},
	{
		"section": [
			"apic[24]"
		],
		"type": "rand",
		"num": 1,
		"head_len": 0.5,
		"head_diam": 0.5,
		"neck_len": 1.58,
		"neck_diam": 0.077,
		"head_g_pas": 5e-05,
		"head_e_pas": -90,
		"neck_g_pas": 5e-05,
		"neck_e_pas": -90,
		"head_cm": 1,
		"head_Ra": 100,
		"neck_cm": 1,
		"neck_Ra": 100
	},
	{
		"section": [
			"apic[25]"
		],
		"type": "rand",
		"num": 2,
		"head_len": 0.5,
		"head_diam": 0.5,
		"neck_len": 1.58,
		"neck_diam": 0.077,
		"head_g_pas": 5e-05,
		"head_e_pas": -90,
		"neck_g_pas": 5e-05,
		"neck_e_pas": -90,
		"head_cm": 1,
		"head_Ra": 100,
		"neck_cm": 1,
		"neck_Ra": 100
	},
	{
		"section": [
			"apic[26]"
		],
		"type": "rand",
		"num": 3,
		"head_len": 0.5,
		"head_diam": 0.5,
		"neck_len": 1.58,
		"neck_diam": 0.077,
		"head_g_pas": 5e-05,
		"head_e_pas": -90,
		"neck_g_pas": 5e-05,
		"neck_e_pas": -90,
		"head_cm": 1,
		"head_Ra": 100,
		"neck_cm": 1,
		"neck_Ra": 100
	},
	{
		"section": [
			"apic[28]"
		],
		"type": "rand",
		"num": 1,
		"head_len": 0.5,
		"head_diam": 0.5,
		"neck_len": 1.58,
		"neck_diam": 0.077,
		"head_g_pas": 5e-05,
		"head_e_pas": -90,
		"neck_g_pas": 5e-05,
		"neck_e_pas": -90,
		"head_cm": 1,
		"head_Ra": 100,
		"neck_cm": 1,
		"neck_Ra": 100
	},
	{
		"section": [
			"apic[29]"
		],
		"type": "rand",
		"num": 3,
		"head_len": 0.5,
		"head_diam": 0.5,
		"neck_len": 1.58,
		"neck_diam": 0.077,
		"head_g_pas": 5e-05,
		"head_e_pas": -90,
		"neck_g_pas": 5e-05,
		"neck_e_pas": -90,
		"head_cm": 1,
		"head_Ra": 100,
		"neck_cm": 1,
		"neck_Ra": 100
	},
	{
		"section": [
			"apic[30]"
		],
		"type": "rand",
		"num": 3,
		"head_len": 0.5,
		"head_diam": 0.5,
		"neck_len": 1.58,
		"neck_diam": 0.077,
		"head_g_pas": 5e-05,
		"head_e_pas": -90,
		"neck_g_pas": 5e-05,
		"neck_e_pas": -90,
		"head_cm": 1,
		"head_Ra": 100,
		"neck_cm": 1,
		"neck_Ra": 100
	},
	{
		"section": [
			"apic[33]"
		],
		"type": "cluster",
		"num": [
			1,
			5
		],
		"head_len": 0.5,
		"head_diam": 0.5,
		"neck_len": 1.58,
		"neck_diam": 0.077,
		"head_g_pas": 5e-05,
		"head_e_pas": -90,
		"neck_g_pas": 5e-05,
		"neck_e_pas": -90,
		"head_cm": 1,
		"head_Ra": 100,
		"neck_cm": 1,
		"neck_Ra": 100
	},
	{
		"section": [
			"apic[34]"
		],
		"type": "cluster",
		"num": [
			2,
			5,
			5
		],
		"head_len": 0.5,
		"head_diam": 0.5,
		"neck_len": 1.58,
		"neck_diam": 0.077,
		"head_g_pas": 5e-05,
		"head_e_pas": -90,
		"neck_g_pas": 5e-05,
		"neck_e_pas": -90,
		"head_cm": 1,
		"head_Ra": 100,
		"neck_cm": 1,
		"neck_Ra": 100
	},
	{
		"section": [
			"apic[34]"
		],
		"type": "rand",
		"num": 1,
		"head_len": 0.5,
		"head_diam": 0.5,
		"neck_len": 1.58,
		"neck_diam": 0.077,
		"head_g_pas": 5e-05,
		"head_e_pas": -90,
		"neck_g_pas": 5e-05,
		"neck_e_pas": -90,
		"head_cm": 1,
		"head_Ra": 100,
		"neck_cm": 1,
		"neck_Ra": 100
	},
	{
		"section": [
			"apic[35]"
		],
		"type": "cluster",
		"num": [
			1,
			5
		],
		"head_len": 0.5,
		"head_diam": 0.5,
		"neck_len": 1.58,
		"neck_diam": 0.077,
		"head_g_pas": 5e-05,
		"head_e_pas": -90,
		"neck_g_pas": 5e-05,
		"neck_e_pas": -90,
		"head_cm": 1,
		"head_Ra": 100,
		"neck_cm": 1,
		"neck_Ra": 100
	},
	{
		"section": [
			"apic[36]"
		],
		"type": "cluster",
		"num": [
			8,
			5,
			5,
			5,
			5,
			5,
			5,
			5,
			5
		],
		"head_len": 0.5,
		"head_diam": 0.5,
		"neck_len": 1.58,
		"neck_diam": 0.077,
		"head_g_pas": 5e-05,
		"head_e_pas": -90,
		"neck_g_pas": 5e-05,
		"neck_e_pas": -90,
		"head_cm": 1,
		"head_Ra": 100,
		"neck_cm": 1,
		"neck_Ra": 100
	},
	{
		"section": [
			"apic[36]"
		],
		"type": "rand",
		"num": 1,
		"head_len": 0.5,
		"head_diam": 0.5,
		"neck_len": 1.58,
		"neck_diam": 0.077,
		"head_g_pas": 5e-05,
		"head_e_pas": -90,
		"neck_g_pas": 5e-05,
		"neck_e_pas": -90,
		"head_cm": 1,
		"head_Ra": 100,
		"neck_cm": 1,
		"neck_Ra": 100
	},
	{
		"section": [
			"apic[37]"
		],
		"type": "cluster",
		"num": [
			5,
			5,
			5,
			5,
			5,
			5
		],
		"head_len": 0.5,
		"head_diam": 0.5,
		"neck_len": 1.58,
		"neck_diam": 0.077,
		"head_g_pas": 5e-05,
		"head_e_pas": -90,
		"neck_g_pas": 5e-05,
		"neck_e_pas": -90,
		"head_cm": 1,
		"head_Ra": 100,
		"neck_cm": 1,
		"neck_Ra": 100
	},
	{
		"section": [
			"apic[37]"
		],
		"type": "rand",
		"num": 2,
		"head_len": 0.5,
		"head_diam": 0.5,
		"neck_len": 1.58,
		"neck_diam": 0.077,
		"head_g_pas": 5e-05,
		"head_e_pas": -90,
		"neck_g_pas": 5e-05,
		"neck_e_pas": -90,
		"head_cm": 1,
		"head_Ra": 100,
		"neck_cm": 1,
		"neck_Ra": 100
	},
	{
		"section": [
			"apic[38]"
		],
		"type": "cluster",
		"num": [
			1,
			5
		],
		"head_len": 0.5,
		"head_diam": 0.5,
		"neck_len": 1.58,
		"neck_diam": 0.077,
		"head_g_pas": 5e-05,
		"head_e_pas": -90,
		"neck_g_pas": 5e-05,
		"neck_e_pas": -90,
		"head_cm": 1,
		"head_Ra": 100,
		"neck_cm": 1,
		"neck_Ra": 100
	},
	{
		"section": [
			"apic[38]"
		],
		"type": "rand",
		"num": 1,
		"head_len": 0.5,
		"head_diam": 0.5,
		"neck_len": 1.58,
		"neck_diam": 0.077,
		"head_g_pas": 5e-05,
		"head_e_pas": -90,
		"neck_g_pas": 5e-05,
		"neck_e_pas": -90,
		"head_cm": 1,
		"head_Ra": 100,
		"neck_cm": 1,
		"neck_Ra": 100
	},
	{
		"section": [
			"apic[39]"
		],
		"type": "rand",
		"num": 2,
		"head_len": 0.5,
		"head_diam": 0.5,
		"neck_len": 1.58,
		"neck_diam": 0.077,
		"head_g_pas": 5e-05,
		"head_e_pas": -90,
		"neck_g_pas": 5e-05,
		"neck_e_pas": -90,
		"head_cm": 1,
		"head_Ra": 100,
		"neck_cm": 1,
		"neck_Ra": 100
	},
	{
		"section": [
			"apic[40]"
		],
		"type": "cluster",
		"num": [
			2,
			5,
			5
		],
		"head_len": 0.5,
		"head_diam": 0.5,
		"neck_len": 1.58,
		"neck_diam": 0.077,
		"head_g_pas": 5e-05,
		"head_e_pas": -90,
		"neck_g_pas": 5e-05,
		"neck_e_pas": -90,
		"head_cm": 1,
		"head_Ra": 100,
		"neck_cm": 1,
		"neck_Ra": 100
	},
	{
		"section": [
			"apic[42]"
		],
		"type": "rand",
		"num": 1,
		"head_len": 0.5,
		"head_diam": 0.5,
		"neck_len": 1.58,
		"neck_diam": 0.077,
		"head_g_pas": 5e-05,
		"head_e_pas": -90,
		"neck_g_pas": 5e-05,
		"neck_e_pas": -90,
		"head_cm": 1,
		"head_Ra": 100,
		"neck_cm": 1,
		"neck_Ra": 100
	},
	{
		"section": [
			"apic[43]"
		],
		"type": "rand",
		"num": 1,
		"head_len": 0.5,
		"head_diam": 0.5,
		"neck_len": 1.58,
		"neck_diam": 0.077,
		"head_g_pas": 5e-05,
		"head_e_pas": -90,
		"neck_g_pas": 5e-05,
		"neck_e_pas": -90,
		"head_cm": 1,
		"head_Ra": 100,
		"neck_cm": 1,
		"neck_Ra": 100
	},
	{
		"section": [
			"apic[44]"
		],
		"type": "rand",
		"num": 1,
		"head_len": 0.5,
		"head_diam": 0.5,
		"neck_len": 1.58,
		"neck_diam": 0.077,
		"head_g_pas": 5e-05,
		"head_e_pas": -90,
		"neck_g_pas": 5e-05,
		"neck_e_pas": -90,
		"head_cm": 1,
		"head_Ra": 100,
		"neck_cm": 1,
		"neck_Ra": 100
	},
	{
		"section": [
			"apic[45]"
		],
		"type": "rand",
		"num": 4,
		"head_len": 0.5,
		"head_diam": 0.5,
		"neck_len": 1.58,
		"neck_diam": 0.077,
		"head_g_pas": 5e-05,
		"head_e_pas": -90,
		"neck_g_pas": 5e-05,
		"neck_e_pas": -90,
		"head_cm": 1,
		"head_Ra": 100,
		"neck_cm": 1,
		"neck_Ra": 100
	},
	{
		"section": [
			"apic[46]"
		],
		"type": "rand",
		"num": 1,
		"head_len": 0.5,
		"head_diam": 0.5,
		"neck_len": 1.58,
		"neck_diam": 0.077,
		"head_g_pas": 5e-05,
		"head_e_pas": -90,
		"neck_g_pas": 5e-05,
		"neck_e_pas": -90,
		"head_cm": 1,
		"head_Ra": 100,
		"neck_cm": 1,
		"neck_Ra": 100
	},
	{
		"section": [
			"apic[49]"
		],
		"type": "cluster",
		"num": [
			1,
			5
		],
		"head_len": 0.5,
		"head_diam": 0.5,
		"neck_len": 1.58,
		"neck_diam": 0.077,
		"head_g_pas": 5e-05,
		"head_e_pas": -90,
		"neck_g_pas": 5e-05,
		"neck_e_pas": -90,
		"head_cm": 1,
		"head_Ra": 100,
		"neck_cm": 1,
		"neck_Ra": 100
	},
	{
		"section": [
			"apic[50]"
		],
		"type": "cluster",
		"num": [
			1,
			5
		],
		"head_len": 0.5,
		"head_diam": 0.5,
		"neck_len": 1.58,
		"neck_diam": 0.077,
		"head_g_pas": 5e-05,
		"head_e_pas": -90,
		"neck_g_pas": 5e-05,
		"neck_e_pas": -90,
		"head_cm": 1,
		"head_Ra": 100,
		"neck_cm": 1,
		"neck_Ra": 100
	},
	{
		"section": [
			"apic[50]"
		],
		"type": "rand",
		"num": 2,
		"head_len": 0.5,
		"head_diam": 0.5,
		"neck_len": 1.58,
		"neck_diam": 0.077,
		"head_g_pas": 5e-05,
		"head_e_pas": -90,
		"neck_g_pas": 5e-05,
		"neck_e_pas": -90,
		"head_cm": 1,
		"head_Ra": 100,
		"neck_cm": 1,
		"neck_Ra": 100
	},
	{
		"section": [
			"apic[51]"
		],
		"type": "cluster",
		"num": [
			3,
			5,
			5,
			5
		],
		"head_len": 0.5,
		"head_diam": 0.5,
		"neck_len": 1.58,
		"neck_diam": 0.077,
		"head_g_pas": 5e-05,
		"head_e_pas": -90,
		"neck_g_pas": 5e-05,
		"neck_e_pas": -90,
		"head_cm": 1,
		"head_Ra": 100,
		"neck_cm": 1,
		"neck_Ra": 100
	},
	{
		"section": [
			"apic[51]"
		],
		"type": "rand",
		"num": 3,
		"head_len": 0.5,
		"head_diam": 0.5,
		"neck_len": 1.58,
		"neck_diam": 0.077,
		"head_g_pas": 5e-05,
		"head_e_pas": -90,
		"neck_g_pas": 5e-05,
		"neck_e_pas": -90,
		"head_cm": 1,
		"head_Ra": 100,
		"neck_cm": 1,
		"neck_Ra": 100
	},
	{
		"section": [
			"apic[52]"
		],
		"type": "rand",
		"num": 3,
		"head_len": 0.5,
		"head_diam": 0.5,
		"neck_len": 1.58,
		"neck_diam": 0.077,
		"head_g_pas": 5e-05,
		"head_e_pas": -90,
		"neck_g_pas": 5e-05,
		"neck_e_pas": -90,
		"head_cm": 1,
		"head_Ra": 100,
		"neck_cm": 1,
		"neck_Ra": 100
	},
	{
		"section": [
			"apic[53]"
		],
		"type": "cluster",
		"num": [
			2,
			5,
			5
		],
		"head_len": 0.5,
		"head_diam": 0.5,
		"neck_len": 1.58,
		"neck_diam": 0.077,
		"head_g_pas": 5e-05,
		"head_e_pas": -90,
		"neck_g_pas": 5e-05,
		"neck_e_pas": -90,
		"head_cm": 1,
		"head_Ra": 100,
		"neck_cm": 1,
		"neck_Ra": 100
	},
	{
		"section": [
			"apic[53]"
		],
		"type": "rand",
		"num": 1,
		"head_len": 0.5,
		"head_diam": 0.5,
		"neck_len": 1.58,
		"neck_diam": 0.077,
		"head_g_pas": 5e-05,
		"head_e_pas": -90,
		"neck_g_pas": 5e-05,
		"neck_e_pas": -90,
		"head_cm": 1,
		"head_Ra": 100,
		"neck_cm": 1,
		"neck_Ra": 100
	},
	{
		"section": [
			"apic[60]"
		],
		"type": "cluster",
		"num": [
			3,
			5,
			5,
			5
		],
		"head_len": 0.5,
		"head_diam": 0.5,
		"neck_len": 1.58,
		"neck_diam": 0.077,
		"head_g_pas": 5e-05,
		"head_e_pas": -90,
		"neck_g_pas": 5e-05,
		"neck_e_pas": -90,
		"head_cm": 1,
		"head_Ra": 100,
		"neck_cm": 1,
		"neck_Ra": 100
	},
	{
		"section": [
			"apic[61]"
		],
		"type": "cluster",
		"num": [
			1,
			5
		],
		"head_len": 0.5,
		"head_diam": 0.5,
		"neck_len": 1.58,
		"neck_diam": 0.077,
		"head_g_pas": 5e-05,
		"head_e_pas": -90,
		"neck_g_pas": 5e-05,
		"neck_e_pas": -90,
		"head_cm": 1,
		"head_Ra": 100,
		"neck_cm": 1,
		"neck_Ra": 100
	},
	{
		"section": [
			"apic[61]"
		],
		"type": "rand",
		"num": 3,
		"head_len": 0.5,
		"head_diam": 0.5,
		"neck_len": 1.58,
		"neck_diam": 0.077,
		"head_g_pas": 5e-05,
		"head_e_pas": -90,
		"neck_g_pas": 5e-05,
		"neck_e_pas": -90,
		"head_cm": 1,
		"head_Ra": 100,
		"neck_cm": 1,
		"neck_Ra": 100
	},
	{
		"section": [
			"apic[62]"
		],
		"type": "rand",
		"num": 2,
		"head_len": 0.5,
		"head_diam": 0.5,
		"neck_len": 1.58,
		"neck_diam": 0.077,
		"head_g_pas": 5e-05,
		"head_e_pas": -90,
		"neck_g_pas": 5e-05,
		"neck_e_pas": -90,
		"head_cm": 1,
		"head_Ra": 100,
		"neck_cm": 1,
		"neck_Ra": 100
	},
	{
		"section": [
			"apic[63]"
		],
		"type": "cluster",
		"num": [
			1,
			5
		],
		"head_len": 0.5,
		"head_diam": 0.5,
		"neck_len": 1.58,
		"neck_diam": 0.077,
		"head_g_pas": 5e-05,
		"head_e_pas": -90,
		"neck_g_pas": 5e-05,
		"neck_e_pas": -90,
		"head_cm": 1,
		"head_Ra": 100,
		"neck_cm": 1,
		"neck_Ra": 100
	},
	{
		"section": [
			"apic[64]"
		],
		"type": "rand",
		"num": 3,
		"head_len": 0.5,
		"head_diam": 0.5,
		"neck_len": 1.58,
		"neck_diam": 0.077,
		"head_g_pas": 5e-05,
		"head_e_pas": -90,
		"neck_g_pas": 5e-05,
		"neck_e_pas": -90,
		"head_cm": 1,
		"head_Ra": 100,
		"neck_cm": 1,
		"neck_Ra": 100
	},
	{
		"section": [
			"apic[65]"
		],
		"type": "rand",
		"num": 1,
		"head_len": 0.5,
		"head_diam": 0.5,
		"neck_len": 1.58,
		"neck_diam": 0.077,
		"head_g_pas": 5e-05,
		"head_e_pas": -90,
		"neck_g_pas": 5e-05,
		"neck_e_pas": -90,
		"head_cm": 1,
		"head_Ra": 100,
		"neck_cm": 1,
		"neck_Ra": 100
	},
	{
		"section": [
			"apic[66]"
		],
		"type": "rand",
		"num": 1,
		"head_len": 0.5,
		"head_diam": 0.5,
		"neck_len": 1.58,
		"neck_diam": 0.077,
		"head_g_pas": 5e-05,
		"head_e_pas": -90,
		"neck_g_pas": 5e-05,
		"neck_e_pas": -90,
		"head_cm": 1,
		"head_Ra": 100,
		"neck_cm": 1,
		"neck_Ra": 100
	},
	{
		"section": [
			"apic[67]"
		],
		"type": "rand",
		"num": 4,
		"head_len": 0.5,
		"head_diam": 0.5,
		"neck_len": 1.58,
		"neck_diam": 0.077,
		"head_g_pas": 5e-05,
		"head_e_pas": -90,
		"neck_g_pas": 5e-05,
		"neck_e_pas": -90,
		"head_cm": 1,
		"head_Ra": 100,
		"neck_cm": 1,
		"neck_Ra": 100
	},
	{
		"section": [
			"apic[68]"
		],
		"type": "cluster",
		"num": [
			1,
			5
		],
		"head_len": 0.5,
		"head_diam": 0.5,
		"neck_len": 1.58,
		"neck_diam": 0.077,
		"head_g_pas": 5e-05,
		"head_e_pas": -90,
		"neck_g_pas": 5e-05,
		"neck_e_pas": -90,
		"head_cm": 1,
		"head_Ra": 100,
		"neck_cm": 1,
		"neck_Ra": 100
	},
	{
		"section": [
			"apic[69]"
		],
		"type": "cluster",
		"num": [
			1,
			5
		],
		"head_len": 0.5,
		"head_diam": 0.5,
		"neck_len": 1.58,
		"neck_diam": 0.077,
		"head_g_pas": 5e-05,
		"head_e_pas": -90,
		"neck_g_pas": 5e-05,
		"neck_e_pas": -90,
		"head_cm": 1,
		"head_Ra": 100,
		"neck_cm": 1,
		"neck_Ra": 100
	},
	{
		"section": [
			"apic[70]"
		],
		"type": "rand",
		"num": 1,
		"head_len": 0.5,
		"head_diam": 0.5,
		"neck_len": 1.58,
		"neck_diam": 0.077,
		"head_g_pas": 5e-05,
		"head_e_pas": -90,
		"neck_g_pas": 5e-05,
		"neck_e_pas": -90,
		"head_cm": 1,
		"head_Ra": 100,
		"neck_cm": 1,
		"neck_Ra": 100
	},
	{
		"section": [
			"apic[71]"
		],
		"type": "rand",
		"num": 3,
		"head_len": 0.5,
		"head_diam": 0.5,
		"neck_len": 1.58,
		"neck_diam": 0.077,
		"head_g_pas": 5e-05,
		"head_e_pas": -90,
		"neck_g_pas": 5e-05,
		"neck_e_pas": -90,
		"head_cm": 1,
		"head_Ra": 100,
		"neck_cm": 1,
		"neck_Ra": 100
	},
	{
		"section": [
			"apic[72]"
		],
		"type": "rand",
		"num": 1,
		"head_len": 0.5,
		"head_diam": 0.5,
		"neck_len": 1.58,
		"neck_diam": 0.077,
		"head_g_pas": 5e-05,
		"head_e_pas": -90,
		"neck_g_pas": 5e-05,
		"neck_e_pas": -90,
		"head_cm": 1,
		"head_Ra": 100,
		"neck_cm": 1,
		"neck_Ra": 100
	},
	{
		"section": [
			"apic[73]"
		],
		"type": "rand",
		"num": 2,
		"head_len": 0.5,
		"head_diam": 0.5,
		"neck_len": 1.58,
		"neck_diam": 0.077,
		"head_g_pas": 5e-05,
		"head_e_pas": -90,
		"neck_g_pas": 5e-05,
		"neck_e_pas": -90,
		"head_cm": 1,
		"head_Ra": 100,
		"neck_cm": 1,
		"neck_Ra": 100
	},
	{
		"section": [
			"apic[74]"
		],
		"type": "rand",
		"num": 1,
		"head_len": 0.5,
		"head_diam": 0.5,
		"neck_len": 1.58,
		"neck_diam": 0.077,
		"head_g_pas": 5e-05,
		"head_e_pas": -90,
		"neck_g_pas": 5e-05,
		"neck_e_pas": -90,
		"head_cm": 1,
		"head_Ra": 100,
		"neck_cm": 1,
		"neck_Ra": 100
	},
	{
		"section": [
			"apic[75]"
		],
		"type": "rand",
		"num": 2,
		"head_len": 0.5,
		"head_diam": 0.5,
		"neck_len": 1.58,
		"neck_diam": 0.077,
		"head_g_pas": 5e-05,
		"head_e_pas": -90,
		"neck_g_pas": 5e-05,
		"neck_e_pas": -90,
		"head_cm": 1,
		"head_Ra": 100,
		"neck_cm": 1,
		"neck_Ra": 100
	},
	{
		"section": [
			"apic[76]"
		],
		"type": "rand",
		"num": 3,
		"head_len": 0.5,
		"head_diam": 0.5,
		"neck_len": 1.58,
		"neck_diam": 0.077,
		"head_g_pas": 5e-05,
		"head_e_pas": -90,
		"neck_g_pas": 5e-05,
		"neck_e_pas": -90,
		"head_cm": 1,
		"head_Ra": 100,
		"neck_cm": 1,
		"neck_Ra": 100
	},
	{
		"section": [
			"apic[77]"
		],
		"type": "rand",
		"num": 3,
		"head_len": 0.5,
		"head_diam": 0.5,
		"neck_len": 1.58,
		"neck_diam": 0.077,
		"head_g_pas": 5e-05,
		"head_e_pas": -90,
		"neck_g_pas": 5e-05,
		"neck_e_pas": -90,
		"head_cm": 1,
		"head_Ra": 100,
		"neck_cm": 1,
		"neck_Ra": 100
	},
	{
		"section": [
			"apic[78]"
		],
		"type": "rand",
		"num": 2,
		"head_len": 0.5,
		"head_diam": 0.5,
		"neck_len": 1.58,
		"neck_diam": 0.077,
		"head_g_pas": 5e-05,
		"head_e_pas": -90,
		"neck_g_pas": 5e-05,
		"neck_e_pas": -90,
		"head_cm": 1,
		"head_Ra": 100,
		"neck_cm": 1,
		"neck_Ra": 100
	},
	{
		"section": [
			"apic[79]"
		],
		"type": "rand",
		"num": 4,
		"head_len": 0.5,
		"head_diam": 0.5,
		"neck_len": 1.58,
		"neck_diam": 0.077,
		"head_g_pas": 5e-05,
		"head_e_pas": -90,
		"neck_g_pas": 5e-05,
		"neck_e_pas": -90,
		"head_cm": 1,
		"head_Ra": 100,
		"neck_cm": 1,
		"neck_Ra": 100
	},
	{
		"section": [
			"apic[80]"
		],
		"type": "rand",
		"num": 2,
		"head_len": 0.5,
		"head_diam": 0.5,
		"neck_len": 1.58,
		"neck_diam": 0.077,
		"head_g_pas": 5e-05,
		"head_e_pas": -90,
		"neck_g_pas": 5e-05,
		"neck_e_pas": -90,
		"head_cm": 1,
		"head_Ra": 100,
		"neck_cm": 1,
		"neck_Ra": 100
	},
	{
		"section": [
			"apic[81]"
		],
		"type": "rand",
		"num": 1,
		"head_len": 0.5,
		"head_diam": 0.5,
		"neck_len": 1.58,
		"neck_diam": 0.077,
		"head_g_pas": 5e-05,
		"head_e_pas": -90,
		"neck_g_pas": 5e-05,
		"neck_e_pas": -90,
		"head_cm": 1,
		"head_Ra": 100,
		"neck_cm": 1,
		"neck_Ra": 100
	},
	{
		"section": [
			"apic[82]"
		],
		"type": "rand",
		"num": 2,
		"head_len": 0.5,
		"head_diam": 0.5,
		"neck_len": 1.58,
		"neck_diam": 0.077,
		"head_g_pas": 5e-05,
		"head_e_pas": -90,
		"neck_g_pas": 5e-05,
		"neck_e_pas": -90,
		"head_cm": 1,
		"head_Ra": 100,
		"neck_cm": 1,
		"neck_Ra": 100
	},
	{
		"section": [
			"apic[83]"
		],
		"type": "rand",
		"num": 4,
		"head_len": 0.5,
		"head_diam": 0.5,
		"neck_len": 1.58,
		"neck_diam": 0.077,
		"head_g_pas": 5e-05,
		"head_e_pas": -90,
		"neck_g_pas": 5e-05,
		"neck_e_pas": -90,
		"head_cm": 1,
		"head_Ra": 100,
		"neck_cm": 1,
		"neck_Ra": 100
	},
	{
		"section": [
			"apic[84]"
		],
		"type": "rand",
		"num": 1,
		"head_len": 0.5,
		"head_diam": 0.5,
		"neck_len": 1.58,
		"neck_diam": 0.077,
		"head_g_pas": 5e-05,
		"head_e_pas": -90,
		"neck_g_pas": 5e-05,
		"neck_e_pas": -90,
		"head_cm": 1,
		"head_Ra": 100,
		"neck_cm": 1,
		"neck_Ra": 100
	},
	{
		"section": [
			"apic[85]"
		],
		"type": "rand",
		"num": 1,
		"head_len": 0.5,
		"head_diam": 0.5,
		"neck_len": 1.58,
		"neck_diam": 0.077,
		"head_g_pas": 5e-05,
		"head_e_pas": -90,
		"neck_g_pas": 5e-05,
		"neck_e_pas": -90,
		"head_cm": 1,
		"head_Ra": 100,
		"neck_cm": 1,
		"neck_Ra": 100
	},
	{
		"section": [
			"apic[86]"
		],
		"type": "rand",
		"num": 2,
		"head_len": 0.5,
		"head_diam": 0.5,
		"neck_len": 1.58,
		"neck_diam": 0.077,
		"head_g_pas": 5e-05,
		"head_e_pas": -90,
		"neck_g_pas": 5e-05,
		"neck_e_pas": -90,
		"head_cm": 1,
		"head_Ra": 100,
		"neck_cm": 1,
		"neck_Ra": 100
	},
	{
		"section": [
			"apic[87]"
		],
		"type": "cluster",
		"num": [
			1,
			5
		],
		"head_len": 0.5,
		"head_diam": 0.5,
		"neck_len": 1.58,
		"neck_diam": 0.077,
		"head_g_pas": 5e-05,
		"head_e_pas": -90,
		"neck_g_pas": 5e-05,
		"neck_e_pas": -90,
		"head_cm": 1,
		"head_Ra": 100,
		"neck_cm": 1,
		"neck_Ra": 100
	},
	{
		"section": [
			"apic[87]"
		],
		"type": "rand",
		"num": 3,
		"head_len": 0.5,
		"head_diam": 0.5,
		"neck_len": 1.58,
		"neck_diam": 0.077,
		"head_g_pas": 5e-05,
		"head_e_pas": -90,
		"neck_g_pas": 5e-05,
		"neck_e_pas": -90,
		"head_cm": 1,
		"head_Ra": 100,
		"neck_cm": 1,
		"neck_Ra": 100
	},
	{
		"section": [
			"apic[89]"
		],
		"type": "rand",
		"num": 2,
		"head_len": 0.5,
		"head_diam": 0.5,
		"neck_len": 1.58,
		"neck_diam": 0.077,
		"head_g_pas": 5e-05,
		"head_e_pas": -90,
		"neck_g_pas": 5e-05,
		"neck_e_pas": -90,
		"head_cm": 1,
		"head_Ra": 100,
		"neck_cm": 1,
		"neck_Ra": 100
	},
	{
		"section": [
			"apic[92]"
		],
		"type": "rand",
		"num": 1,
		"head_len": 0.5,
		"head_diam": 0.5,
		"neck_len": 1.58,
		"neck_diam": 0.077,
		"head_g_pas": 5e-05,
		"head_e_pas": -90,
		"neck_g_pas": 5e-05,
		"neck_e_pas": -90,
		"head_cm": 1,
		"head_Ra": 100,
		"neck_cm": 1,
		"neck_Ra": 100
	},
	{
		"section": [
			"apic[93]"
		],
		"type": "cluster",
		"num": [
			1,
			5
		],
		"head_len": 0.5,
		"head_diam": 0.5,
		"neck_len": 1.58,
		"neck_diam": 0.077,
		"head_g_pas": 5e-05,
		"head_e_pas": -90,
		"neck_g_pas": 5e-05,
		"neck_e_pas": -90,
		"head_cm": 1,
		"head_Ra": 100,
		"neck_cm": 1,
		"neck_Ra": 100
	},
	{
		"section": [
			"apic[94]"
		],
		"type": "rand",
		"num": 1,
		"head_len": 0.5,
		"head_diam": 0.5,
		"neck_len": 1.58,
		"neck_diam": 0.077,
		"head_g_pas": 5e-05,
		"head_e_pas": -90,
		"neck_g_pas": 5e-05,
		"neck_e_pas": -90,
		"head_cm": 1,
		"head_Ra": 100,
		"neck_cm": 1,
		"neck_Ra": 100
	},
	{
		"section": [
			"apic[95]"
		],
		"type": "rand",
		"num": 2,
		"head_len": 0.5,
		"head_diam": 0.5,
		"neck_len": 1.58,
		"neck_diam": 0.077,
		"head_g_pas": 5e-05,
		"head_e_pas": -90,
		"neck_g_pas": 5e-05,
		"neck_e_pas": -90,
		"head_cm": 1,
		"head_Ra": 100,
		"neck_cm": 1,
		"neck_Ra": 100
	},
	{
		"section": [
			"apic[96]"
		],
		"type": "rand",
		"num": 1,
		"head_len": 0.5,
		"head_diam": 0.5,
		"neck_len": 1.58,
		"neck_diam": 0.077,
		"head_g_pas": 5e-05,
		"head_e_pas": -90,
		"neck_g_pas": 5e-05,
		"neck_e_pas": -90,
		"head_cm": 1,
		"head_Ra": 100,
		"neck_cm": 1,
		"neck_Ra": 100
	},
	{
		"section": [
			"apic[99]"
		],
		"type": "rand",
		"num": 2,
		"head_len": 0.5,
		"head_diam": 0.5,
		"neck_len": 1.58,
		"neck_diam": 0.077,
		"head_g_pas": 5e-05,
		"head_e_pas": -90,
		"neck_g_pas": 5e-05,
		"neck_e_pas": -90,
		"head_cm": 1,
		"head_Ra": 100,
		"neck_cm": 1,
		"neck_Ra": 100
	},
	{
		"section": [
			"apic[101]"
		],
		"type": "cluster",
		"num": [
			1,
			5
		],
		"head_len": 0.5,
		"head_diam": 0.5,
		"neck_len": 1.58,
		"neck_diam": 0.077,
		"head_g_pas": 5e-05,
		"head_e_pas": -90,
		"neck_g_pas": 5e-05,
		"neck_e_pas": -90,
		"head_cm": 1,
		"head_Ra": 100,
		"neck_cm": 1,
		"neck_Ra": 100
	},
	{
		"section": [
			"apic[101]"
		],
		"type": "rand",
		"num": 2,
		"head_len": 0.5,
		"head_diam": 0.5,
		"neck_len": 1.58,
		"neck_diam": 0.077,
		"head_g_pas": 5e-05,
		"head_e_pas": -90,
		"neck_g_pas": 5e-05,
		"neck_e_pas": -90,
		"head_cm": 1,
		"head_Ra": 100,
		"neck_cm": 1,
		"neck_Ra": 100
	},
	{
		"section": [
			"apic[102]"
		],
		"type": "cluster",
		"num": [
			1,
			5
		],
		"head_len": 0.5,
		"head_diam": 0.5,
		"neck_len": 1.58,
		"neck_diam": 0.077,
		"head_g_pas": 5e-05,
		"head_e_pas": -90,
		"neck_g_pas": 5e-05,
		"neck_e_pas": -90,
		"head_cm": 1,
		"head_Ra": 100,
		"neck_cm": 1,
		"neck_Ra": 100
	},
	{
		"section": [
			"apic[102]"
		],
		"type": "rand",
		"num": 3,
		"head_len": 0.5,
		"head_diam": 0.5,
		"neck_len": 1.58,
		"neck_diam": 0.077,
		"head_g_pas": 5e-05,
		"head_e_pas": -90,
		"neck_g_pas": 5e-05,
		"neck_e_pas": -90,
		"head_cm": 1,
		"head_Ra": 100,
		"neck_cm": 1,
		"neck_Ra": 100
	},
	{
		"section": [
			"apic[103]"
		],
		"type": "rand",
		"num": 4,
		"head_len": 0.5,
		"head_diam": 0.5,
		"neck_len": 1.58,
		"neck_diam": 0.077,
		"head_g_pas": 5e-05,
		"head_e_pas": -90,
		"neck_g_pas": 5e-05,
		"neck_e_pas": -90,
		"head_cm": 1,
		"head_Ra": 100,
		"neck_cm": 1,
		"neck_Ra": 100
	},
	{
		"section": [
			"apic[104]"
		],
		"type": "rand",
		"num": 2,
		"head_len": 0.5,
		"head_diam": 0.5,
		"neck_len": 1.58,
		"neck_diam": 0.077,
		"head_g_pas": 5e-05,
		"head_e_pas": -90,
		"neck_g_pas": 5e-05,
		"neck_e_pas": -90,
		"head_cm": 1,
		"head_Ra": 100,
		"neck_cm": 1,
		"neck_Ra": 100
	},
	{
		"section": [
			"apic[105]"
		],
		"type": "rand",
		"num": 4,
		"head_len": 0.5,
		"head_diam": 0.5,
		"neck_len": 1.58,
		"neck_diam": 0.077,
		"head_g_pas": 5e-05,
		"head_e_pas": -90,
		"neck_g_pas": 5e-05,
		"neck_e_pas": -90,
		"head_cm": 1,
		"head_Ra": 100,
		"neck_cm": 1,
		"neck_Ra": 100
	},
	{
		"section": [
			"apic[106]"
		],
		"type": "rand",
		"num": 1,
		"head_len": 0.5,
		"head_diam": 0.5,
		"neck_len": 1.58,
		"neck_diam": 0.077,
		"head_g_pas": 5e-05,
		"head_e_pas": -90,
		"neck_g_pas": 5e-05,
		"neck_e_pas": -90,
		"head_cm": 1,
		"head_Ra": 100,
		"neck_cm": 1,
		"neck_Ra": 100
	},
	{
		"section": [
			"apic[107]"
		],
		"type": "rand",
		"num": 1,
		"head_len": 0.5,
		"head_diam": 0.5,
		"neck_len": 1.58,
		"neck_diam": 0.077,
		"head_g_pas": 5e-05,
		"head_e_pas": -90,
		"neck_g_pas": 5e-05,
		"neck_e_pas": -90,
		"head_cm": 1,
		"head_Ra": 100,
		"neck_cm": 1,
		"neck_Ra": 100
	},
	{
		"section": [
			"apic[108]"
		],
		"type": "rand",
		"num": 1,
		"head_len": 0.5,
		"head_diam": 0.5,
		"neck_len": 1.58,
		"neck_diam": 0.077,
		"head_g_pas": 5e-05,
		"head_e_pas": -90,
		"neck_g_pas": 5e-05,
		"neck_e_pas": -90,
		"head_cm": 1,
		"head_Ra": 100,
		"neck_cm": 1,
		"neck_Ra": 100
	}
]

}
